<?xml version="1.0" encoding="utf-8"?>
<!-- Generator: Adobe Illustrator 25.2.2, SVG Export Plug-In . SVG Version: 6.00 Build 0)  -->
<svg version="1.1" id="Layer_1" xmlns="http://www.w3.org/2000/svg" xmlns:xlink="http://www.w3.org/1999/xlink" x="0px" y="0px"
	 viewBox="0 0 200 124.2" style="enable-background:new 0 0 200 124.2;" xml:space="preserve">
<style type="text/css">
	.st0{fill:#2EB8C7;}
	.st1{fill:#A7D7E5;}
	.st2{fill:#FFFFFF;}
	.st3{fill:#FEFEFF;}
	.st4{fill:#1F2D4C;}
	.st5{fill:#F0F0F1;}
	.st6{fill:#13A3BA;}
	.st7{fill:none;stroke:#E6E4E5;stroke-width:0.1;stroke-miterlimit:10;}
</style>
<image style="overflow:visible;" width="834" height="834" id="XMLID_1_" xlink:href="457F16023A8BCB4F.png"  transform="matrix(0.24 0 0 0.24 0 0)">
</image>
<path id="XMLID_4_" class="st0" d="M200,85.2c-1.5-0.6-3.1-0.9-4.7-0.9c-4.3,0-8.1,2.1-10.4,5.3c-2.1-1.2-4.5-1.9-7-1.9
	c-2,0-3.9,0.4-5.6,1.2c-0.5-6.1-5.5-10.8-11.7-10.8c-3.7,0-7,1.7-9.2,4.4c-2.6-2.7-6.3-4.4-10.4-4.4c-6.3,0-11.7,4.1-13.7,9.7
	c-0.4,0-0.9-0.1-1.3-0.1c-0.8,0-1.5,0.1-2.2,0.2c-2-5.8-7.5-10-13.9-10c-3.1,0-6,1-8.4,2.6c-2.2-2.9-5.7-4.9-9.7-4.9
	c-3,0-5.8,1.1-7.9,3c-3.2-3.1-7.6-5-12.4-5c-7.2,0-13.3,4.2-16.2,10.3c-1.7-0.8-3.6-1.3-5.7-1.3c-3,0-5.8,1-8.1,2.7
	c-3.2-4.4-8.4-7.3-14.3-7.3c-5.3,0-10.1,2.4-13.4,6.1c-2-1-4.3-1.6-6.6-1.6c-2.5,0-4.9,0.6-7,1.7v26.5c2.1,1.1,4.5,1.7,7,1.7
	c3.3,0,6.4-1.1,8.9-2.9c3,2.5,6.9,3.9,11.1,3.9c5.8,0,10.9-2.8,14.2-7.1c2.3,1.8,5.1,2.9,8.2,2.9c4,0,7.5-1.7,10-4.5
	c3.2,2.8,7.3,4.5,11.8,4.5c7.2,0,13.4-4.2,16.2-10.3c1.3,0.5,2.7,0.7,4.1,0.7c1.7,0,3.3-0.4,4.8-1c2.4,5,7.4,8.5,13.3,8.5
	c0.3,0,0.5,0,0.8,0c1.7,7,7.9,12.1,15.4,12.1c7.5,0,13.7-5.2,15.4-12.1c5.4-0.1,10.1-3.2,12.5-7.7c1.9,1.3,4.2,2.1,6.7,2.1
	c1.1,0,2.2-0.2,3.3-0.5c0,0.2,0,0.5,0,0.7c0,7.8,6.3,14.1,14.1,14.1c5.2,0,9.7-2.8,12.2-7c1.6,0.7,3.4,1.2,5.3,1.2
	c1.7,0,3.3-0.3,4.7-0.9V85.2z"/>
<path id="XMLID_7_" class="st1" d="M200,94.8c-0.1,0-0.2,0-0.2,0c-3.4,0-6.3,1.7-8.1,4.3c-1.5-1.3-3.5-2.1-5.7-2.1
	c-2.6,0-5,1.2-6.6,3c-1.6-1.1-3.4-1.7-5.4-1.7c-0.5,0-0.9,0-1.4,0.1C171.6,92,166,87,159.2,87c-4.6,0-8.6,2.3-11.1,5.7
	c-0.8-0.3-1.7-0.5-2.6-0.5c-1.9,0-3.6,0.8-4.8,2.1c-1.6-1-3.5-1.6-5.5-1.6c-3.5,0-6.7,1.8-8.5,4.6c-1.8-3-5.1-5.1-8.9-5.1
	c-2.7,0-5.1,1-6.9,2.7c-1.3-2.5-3.8-4.2-6.8-4.2c0,0-0.1,0-0.1,0c-2.6-3.8-6.9-6.3-11.9-6.3c-7.3,0-13.3,5.5-14.2,12.5
	c-2.3-2.6-5.6-4.2-9.3-4.2c-3,0-5.7,1-7.8,2.8c-2.2-2.9-5.6-4.8-9.5-4.8c-4.8,0-8.9,2.8-10.7,6.9c-1.3-0.6-2.7-0.9-4.3-0.9
	c-2.2,0-4.3,0.7-6,1.9c-2.3-3.5-6.3-5.9-10.9-5.9c-6.3,0-11.6,4.5-12.7,10.5c-1.8-0.9-3.8-1.5-5.9-1.5c-0.2,0-0.4,0-0.7,0V127
	c0.2,0,0.4,0,0.7,0c6.1,0,11.1-4.3,12.4-10c1.9,1,4,1.6,6.3,1.6c3.7,0,7.1-1.6,9.4-4.1c1.9,1.9,4.5,3.1,7.4,3.1c3.8,0,7.1-2,8.9-5
	c1.8,1.1,3.8,1.7,6.1,1.7c2.6,0,5-0.8,6.9-2.3c2.2,3.4,6.1,5.6,10.4,5.6c4.2,0,7.9-2.1,10.2-5.3c0.8,0.4,1.8,0.6,2.8,0.6
	c1.6,0,3-0.6,4.1-1.5c1.9,1,4.1,1.5,6.4,1.5c5.2,0,9.8-2.8,12.3-7c1.2,0,2.3-0.4,3.3-0.9c1.1,4.5,5.2,7.9,10.1,7.9
	c3.7,0,6.9-1.9,8.8-4.8c1.8,2.9,5,4.8,8.6,4.8c4.8,0,8.8-3.4,9.9-7.9c0.1,0,0.3,0,0.4,0c0.3,0,0.5,0,0.8,0c1.8,5.4,6.9,9.2,12.9,9.2
	c2.3,0,4.5-0.6,6.4-1.6c1.7,2.9,4.8,4.9,8.4,4.9c3.4,0,6.3-1.7,8-4.3c1.2,0.6,2.5,1,4,1c2.7,0,5-1.2,6.6-3.1
	c1.8,1.9,4.3,3.1,7.1,3.1c0.1,0,0.2,0,0.2,0V94.8z"/>
<path id="XMLID_23_" class="st2" d="M195.2,105.9c-0.8-0.4-1.8-0.6-2.7-0.6c-2,0-3.9,0.9-5.1,2.3c-1.4-2.8-4.3-4.7-7.7-4.7
	c-4.1,0-7.5,2.8-8.4,6.6c-0.2,0-0.5,0.1-0.7,0.1c-1.3-3.9-4.9-6.7-9.2-6.7c-1,0-1.9,0.1-2.8,0.4c-0.9-3-3.6-5.2-6.9-5.2
	c-3.1,0-5.8,2-6.7,4.8c-0.1,0-0.3,0-0.4,0c-2.2,0-4.2,0.9-5.7,2.3c-1.9-2.4-4.9-3.9-8.1-3.9c-3.1,0-5.9,1.3-7.8,3.5
	c-1.5-1.2-3.3-1.9-5.4-1.9c-0.8,0-1.5,0.1-2.2,0.3c0-0.1,0-0.2,0-0.3c0-4.5-3.6-8.1-8.1-8.1c-3.9,0-7.2,2.8-7.9,6.5c0,0,0,0,0,0
	c-1.4,0-2.7,0.2-4,0.7c-0.4-2.2-2.3-3.8-4.7-3.8c-1.7,0-3.2,0.9-4,2.2c-0.8-0.2-1.7-0.4-2.6-0.4c-3,0-5.7,1.4-7.4,3.6
	c-1.5-1.4-3.4-2.2-5.6-2.2c-4,0-7.4,2.9-8,6.8c-0.7-0.3-1.5-0.4-2.3-0.4c-1.3,0-2.5,0.4-3.5,1c-1.4-2.6-4.1-4.3-7.2-4.3
	c-1.9,0-3.6,0.6-5,1.7c-0.1-3.4-2.9-6.1-6.2-6.1c-3.1,0-5.7,2.2-6.2,5.2c-1.2-0.5-2.5-0.9-3.9-0.9c-1,0-2,0.2-2.9,0.4
	c-0.7-2.7-3.1-4.8-6.1-4.8c-3.1,0-5.6,2.2-6.2,5.2c-1.1-0.5-2.3-0.8-3.6-0.8c-2.8,0-5.2,1.4-6.7,3.5c-0.5-0.1-0.9-0.2-1.4-0.2
	c-0.6,0-1.1,0.1-1.7,0.2v3.1v7.8V200h200v-78.4V111v-8.9C198,102.8,196.4,104.2,195.2,105.9z"/>
<circle id="XMLID_227_" class="st2" cx="95.7" cy="100.5" r="4"/>
<path id="XMLID_228_" class="st2" d="M104.1,95.4c0,2-1.6,3.6-3.6,3.6c-2,0-3.6-1.6-3.6-3.6c0-2,1.6-3.6,3.6-3.6
	C102.5,91.8,104.1,93.4,104.1,95.4z"/>
<circle id="XMLID_242_" class="st2" cx="107.2" cy="95.2" r="2.3"/>
<circle id="XMLID_238_" class="st2" cx="102.7" cy="64" r="0.8"/>
<path id="XMLID_82_" class="st2" d="M95.3,57.7c0,0.5-0.4,0.8-0.8,0.8s-0.8-0.4-0.8-0.8c0-0.5,0.4-0.8,0.8-0.8S95.3,57.2,95.3,57.7z
	"/>
<path id="XMLID_61_" class="st2" d="M107.4,68c0,0.5-0.4,0.8-0.8,0.8c-0.5,0-0.8-0.4-0.8-0.8s0.4-0.8,0.8-0.8
	C107,67.2,107.4,67.5,107.4,68z"/>
<path id="XMLID_241_" class="st2" d="M97.7,62.7c0,0.3-0.2,0.5-0.5,0.5c-0.3,0-0.5-0.2-0.5-0.5c0-0.3,0.2-0.5,0.5-0.5
	C97.4,62.2,97.7,62.4,97.7,62.7z"/>
<path id="XMLID_90_" class="st2" d="M93.1,70.2c0,0.3-0.2,0.5-0.5,0.5s-0.5-0.2-0.5-0.5c0-0.3,0.2-0.5,0.5-0.5S93.1,69.9,93.1,70.2z
	"/>
<circle id="XMLID_78_" class="st2" cx="105.7" cy="51.1" r="0.5"/>
<circle id="XMLID_94_" class="st2" cx="105.7" cy="76.4" r="0.5"/>
<g id="XMLID_6_">
	<g id="XMLID_2289_">
		<rect id="XMLID_1011_" x="116.5" y="12.6" class="st2" width="0.1" height="13"/>
		<rect id="XMLID_1010_" x="122.7" y="22.1" class="st2" width="0.1" height="7.8"/>
		<rect id="XMLID_1009_" x="123.7" y="50" class="st2" width="0.1" height="7.8"/>
		<rect id="XMLID_1008_" x="114" y="36.7" class="st2" width="0.1" height="13"/>
		<polygon id="XMLID_2293_" class="st2" points="116.5,12.8 116,12.8 116.3,12.5 116.5,12.1 116.8,12.5 117,12.8 		"/>
		<polygon id="XMLID_2292_" class="st2" points="122.8,22.1 122.3,22.1 122.5,21.7 122.8,21.4 123,21.7 123.3,22.1 		"/>
		<polygon id="XMLID_2291_" class="st2" points="114,37 113.5,37 113.8,36.7 114,36.3 114.3,36.7 114.5,37 		"/>
		<polygon id="XMLID_2290_" class="st2" points="123.7,50 123.2,50 123.5,49.7 123.7,49.3 124,49.7 124.2,50 		"/>
	</g>
	<g id="XMLID_2298_">
		<rect id="XMLID_1007_" x="40.9" y="19.5" class="st2" width="0.1" height="13"/>
		<rect id="XMLID_1006_" x="47.1" y="28.9" class="st2" width="0.1" height="7.8"/>
		<rect id="XMLID_1005_" x="48.1" y="56.8" class="st2" width="0.1" height="7.8"/>
		<rect id="XMLID_1004_" x="38.5" y="43.6" class="st2" width="0.1" height="13"/>
		<polygon id="XMLID_2302_" class="st2" points="41,19.7 40.5,19.7 40.7,19.4 41,19 41.2,19.4 41.5,19.7 		"/>
		<polygon id="XMLID_2301_" class="st2" points="47.2,28.9 46.7,28.9 47,28.6 47.2,28.2 47.5,28.6 47.7,28.9 		"/>
		<polygon id="XMLID_2300_" class="st2" points="38.5,43.9 38,43.9 38.2,43.5 38.5,43.2 38.7,43.5 39,43.9 		"/>
		<polygon id="XMLID_2299_" class="st2" points="48.2,56.9 47.7,56.9 47.9,56.6 48.2,56.2 48.4,56.6 48.7,56.9 		"/>
	</g>
	<g id="XMLID_2307_">
		<rect id="XMLID_1003_" x="18.2" y="10.3" class="st2" width="0.1" height="13"/>
		<rect id="XMLID_1002_" x="24.5" y="19.8" class="st2" width="0.1" height="7.8"/>
		<rect id="XMLID_1001_" x="25.4" y="47.7" class="st2" width="0.1" height="7.8"/>
		<rect id="XMLID_1000_" x="15.8" y="34.4" class="st2" width="0.1" height="13"/>
		<polygon id="XMLID_2311_" class="st2" points="18.3,10.6 17.8,10.6 18.1,10.2 18.3,9.9 18.6,10.2 18.8,10.6 		"/>
		<polygon id="XMLID_2310_" class="st2" points="24.5,19.8 24,19.8 24.3,19.4 24.5,19.1 24.8,19.4 25,19.8 		"/>
		<polygon id="XMLID_2309_" class="st2" points="15.8,34.7 15.3,34.7 15.5,34.4 15.8,34 16,34.4 16.3,34.7 		"/>
		<polygon id="XMLID_2308_" class="st2" points="25.5,47.7 25,47.7 25.3,47.4 25.5,47 25.8,47.4 26,47.7 		"/>
	</g>
	<g id="XMLID_2316_">
		<rect id="XMLID_999_" x="106.9" y="16.1" class="st2" width="0.1" height="13"/>
		<rect id="XMLID_998_" x="113.1" y="25.5" class="st2" width="0.1" height="7.8"/>
		<rect id="XMLID_997_" x="114.1" y="53.4" class="st2" width="0.1" height="7.8"/>
		<rect id="XMLID_996_" x="104.4" y="40.2" class="st2" width="0.1" height="13"/>
		<polygon id="XMLID_2320_" class="st2" points="106.9,16.3 106.4,16.3 106.7,15.9 106.9,15.6 107.2,15.9 107.4,16.3 		"/>
		<polygon id="XMLID_2319_" class="st2" points="113.1,25.5 112.6,25.5 112.9,25.1 113.1,24.8 113.4,25.1 113.6,25.5 		"/>
		<polygon id="XMLID_2318_" class="st2" points="104.4,40.4 103.9,40.4 104.2,40.1 104.4,39.7 104.7,40.1 104.9,40.4 		"/>
		<polygon id="XMLID_2317_" class="st2" points="114.1,53.5 113.6,53.5 113.9,53.1 114.1,52.8 114.4,53.1 114.6,53.5 		"/>
	</g>
	<g id="XMLID_2325_">
		<rect id="XMLID_995_" x="121.8" y="9.7" class="st2" width="0.1" height="13"/>
		<rect id="XMLID_994_" x="128" y="19.1" class="st2" width="0.1" height="7.8"/>
		<rect id="XMLID_993_" x="129" y="47" class="st2" width="0.1" height="7.8"/>
		<rect id="XMLID_992_" x="119.3" y="33.8" class="st2" width="0.1" height="13"/>
		<polygon id="XMLID_2329_" class="st2" points="121.9,9.9 121.4,9.9 121.6,9.6 121.9,9.2 122.1,9.6 122.4,9.9 		"/>
		<polygon id="XMLID_2328_" class="st2" points="128.1,19.1 127.6,19.1 127.8,18.8 128.1,18.4 128.3,18.8 128.6,19.1 		"/>
		<polygon id="XMLID_2327_" class="st2" points="119.4,34.1 118.9,34.1 119.1,33.7 119.4,33.4 119.6,33.7 119.9,34.1 		"/>
		<polygon id="XMLID_2326_" class="st2" points="129.1,47.1 128.6,47.1 128.8,46.8 129.1,46.4 129.3,46.8 129.6,47.1 		"/>
	</g>
	<g id="XMLID_2334_">
		<rect id="XMLID_991_" x="178.3" y="10.8" class="st2" width="0.1" height="13"/>
		<rect id="XMLID_990_" x="184.5" y="20.3" class="st2" width="0.1" height="7.8"/>
		<rect id="XMLID_989_" x="185.5" y="48.2" class="st2" width="0.1" height="7.8"/>
		<rect id="XMLID_988_" x="175.8" y="34.9" class="st2" width="0.1" height="13"/>
		<polygon id="XMLID_2338_" class="st2" points="178.3,11.1 177.8,11.1 178.1,10.7 178.3,10.4 178.6,10.7 178.8,11.1 		"/>
		<polygon id="XMLID_2337_" class="st2" points="184.5,20.3 184,20.3 184.3,19.9 184.5,19.6 184.8,19.9 185,20.3 		"/>
		<polygon id="XMLID_2336_" class="st2" points="175.8,35.2 175.3,35.2 175.6,34.9 175.8,34.5 176.1,34.9 176.3,35.2 		"/>
		<polygon id="XMLID_2335_" class="st2" points="185.5,48.2 185,48.2 185.3,47.9 185.5,47.5 185.8,47.9 186,48.2 		"/>
	</g>
	<g id="XMLID_1469_">
		<rect id="XMLID_987_" x="45.9" y="61.6" class="st2" width="0.1" height="13"/>
		<rect id="XMLID_986_" x="52.1" y="71" class="st2" width="0.1" height="7.8"/>
		<rect id="XMLID_985_" x="53.1" y="98.9" class="st2" width="0.1" height="7.8"/>
		<rect id="XMLID_984_" x="43.4" y="85.7" class="st2" width="0.1" height="13"/>
		<polygon id="XMLID_1473_" class="st2" points="45.9,61.8 45.4,61.8 45.7,61.4 45.9,61.1 46.2,61.4 46.4,61.8 		"/>
		<polygon id="XMLID_1472_" class="st2" points="52.1,71 51.6,71 51.9,70.6 52.1,70.3 52.4,70.6 52.6,71 		"/>
		<polygon id="XMLID_1471_" class="st2" points="43.4,85.9 42.9,85.9 43.2,85.6 43.4,85.2 43.7,85.6 43.9,85.9 		"/>
		<polygon id="XMLID_1470_" class="st2" points="53.1,99 52.6,99 52.9,98.6 53.1,98.3 53.4,98.6 53.6,99 		"/>
	</g>
	<g id="XMLID_1460_">
		<rect id="XMLID_983_" x="122.5" y="47.6" class="st2" width="0.1" height="13"/>
		<rect id="XMLID_982_" x="128.7" y="57.1" class="st2" width="0.1" height="7.8"/>
		<rect id="XMLID_981_" x="129.7" y="85" class="st2" width="0.1" height="7.8"/>
		<rect id="XMLID_980_" x="120" y="71.7" class="st2" width="0.1" height="13"/>
		<polygon id="XMLID_1464_" class="st2" points="122.5,47.8 122,47.8 122.3,47.5 122.5,47.1 122.8,47.5 123,47.8 		"/>
		<polygon id="XMLID_1463_" class="st2" points="128.7,57.1 128.2,57.1 128.5,56.7 128.7,56.4 129,56.7 129.2,57.1 		"/>
		<polygon id="XMLID_1462_" class="st2" points="120,72 119.5,72 119.8,71.7 120,71.3 120.3,71.7 120.5,72 		"/>
		<polygon id="XMLID_1461_" class="st2" points="129.7,85 129.2,85 129.5,84.7 129.7,84.3 130,84.7 130.2,85 		"/>
	</g>
	<g id="XMLID_1442_">
		<rect id="XMLID_979_" x="81.6" y="43.4" class="st2" width="0.1" height="13"/>
		<rect id="XMLID_978_" x="87.8" y="52.8" class="st2" width="0.1" height="7.8"/>
		<rect id="XMLID_977_" x="88.8" y="80.7" class="st2" width="0.1" height="7.8"/>
		<rect id="XMLID_976_" x="79.1" y="67.5" class="st2" width="0.1" height="13"/>
		<polygon id="XMLID_1446_" class="st2" points="81.6,43.6 81.1,43.6 81.4,43.2 81.6,42.9 81.9,43.2 82.1,43.6 		"/>
		<polygon id="XMLID_1445_" class="st2" points="87.9,52.8 87.4,52.8 87.6,52.5 87.9,52.1 88.1,52.5 88.4,52.8 		"/>
		<polygon id="XMLID_1444_" class="st2" points="79.1,67.8 78.6,67.8 78.9,67.4 79.1,67.1 79.4,67.4 79.6,67.8 		"/>
		<polygon id="XMLID_1443_" class="st2" points="88.8,80.8 88.3,80.8 88.6,80.4 88.8,80.1 89.1,80.4 89.3,80.8 		"/>
	</g>
	<g id="XMLID_1433_">
		<rect id="XMLID_975_" x="40.3" y="32.7" class="st2" width="0.1" height="13"/>
		<rect id="XMLID_974_" x="46.6" y="42.1" class="st2" width="0.1" height="7.8"/>
		<rect id="XMLID_973_" x="47.5" y="70.1" class="st2" width="0.1" height="7.8"/>
		<rect id="XMLID_972_" x="37.9" y="56.8" class="st2" width="0.1" height="13"/>
		<polygon id="XMLID_1437_" class="st2" points="40.4,32.9 39.9,32.9 40.2,32.6 40.4,32.2 40.7,32.6 40.9,32.9 		"/>
		<polygon id="XMLID_1436_" class="st2" points="46.6,42.1 46.1,42.1 46.4,41.8 46.6,41.4 46.9,41.8 47.1,42.1 		"/>
		<polygon id="XMLID_1435_" class="st2" points="37.9,57.1 37.4,57.1 37.6,56.7 37.9,56.4 38.1,56.7 38.4,57.1 		"/>
		<polygon id="XMLID_1434_" class="st2" points="47.6,70.1 47.1,70.1 47.4,69.8 47.6,69.4 47.8,69.8 48.1,70.1 		"/>
	</g>
	<g id="XMLID_1424_">
		<rect id="XMLID_971_" x="76.5" y="57.8" class="st2" width="0.1" height="13"/>
		<rect id="XMLID_970_" x="82.7" y="67.3" class="st2" width="0.1" height="7.8"/>
		<rect id="XMLID_969_" x="83.7" y="95.2" class="st2" width="0.1" height="7.8"/>
		<rect id="XMLID_968_" x="74.1" y="81.9" class="st2" width="0.1" height="13"/>
		<polygon id="XMLID_1428_" class="st2" points="76.6,58 76.1,58 76.3,57.7 76.6,57.3 76.8,57.7 77.1,58 		"/>
		<polygon id="XMLID_1427_" class="st2" points="82.8,67.3 82.3,67.3 82.5,66.9 82.8,66.6 83,66.9 83.3,67.3 		"/>
		<polygon id="XMLID_1426_" class="st2" points="74.1,82.2 73.6,82.2 73.8,81.9 74.1,81.5 74.3,81.9 74.6,82.2 		"/>
		<polygon id="XMLID_1425_" class="st2" points="83.8,95.2 83.3,95.2 83.5,94.9 83.8,94.5 84,94.9 84.3,95.2 		"/>
	</g>
	<g id="XMLID_1415_">
		<rect id="XMLID_967_" x="29.8" y="48" class="st2" width="0.1" height="13"/>
		<rect id="XMLID_966_" x="36" y="57.4" class="st2" width="0.1" height="7.8"/>
		<rect id="XMLID_965_" x="37" y="85.3" class="st2" width="0.1" height="7.8"/>
		<rect id="XMLID_964_" x="27.3" y="72.1" class="st2" width="0.1" height="13"/>
		<polygon id="XMLID_1419_" class="st2" points="29.8,48.2 29.3,48.2 29.6,47.9 29.8,47.5 30.1,47.9 30.3,48.2 		"/>
		<polygon id="XMLID_1418_" class="st2" points="36.1,57.4 35.6,57.4 35.8,57.1 36.1,56.7 36.3,57.1 36.6,57.4 		"/>
		<polygon id="XMLID_1417_" class="st2" points="27.3,72.4 26.8,72.4 27.1,72 27.3,71.7 27.6,72 27.8,72.4 		"/>
		<polygon id="XMLID_1416_" class="st2" points="37,85.4 36.5,85.4 36.8,85.1 37,84.7 37.3,85.1 37.5,85.4 		"/>
	</g>
	<g id="XMLID_1406_">
		<rect id="XMLID_963_" x="67.9" y="28.2" class="st2" width="0.1" height="13"/>
		<rect id="XMLID_962_" x="74.1" y="37.6" class="st2" width="0.1" height="7.8"/>
		<rect id="XMLID_400_" x="75.1" y="65.5" class="st2" width="0.1" height="7.8"/>
		<rect id="XMLID_960_" x="65.4" y="52.3" class="st2" width="0.1" height="13"/>
		<polygon id="XMLID_1410_" class="st2" points="68,28.4 67.5,28.4 67.7,28.1 68,27.7 68.2,28.1 68.5,28.4 		"/>
		<polygon id="XMLID_1409_" class="st2" points="74.2,37.6 73.7,37.6 73.9,37.3 74.2,36.9 74.4,37.3 74.7,37.6 		"/>
		<polygon id="XMLID_1408_" class="st2" points="65.5,52.6 65,52.6 65.2,52.2 65.5,51.9 65.7,52.2 66,52.6 		"/>
		<polygon id="XMLID_1407_" class="st2" points="75.2,65.6 74.7,65.6 74.9,65.3 75.2,64.9 75.4,65.3 75.7,65.6 		"/>
	</g>
	<g id="XMLID_1397_">
		<rect id="XMLID_959_" x="119.5" y="46.1" class="st2" width="0.1" height="13"/>
		<rect id="XMLID_958_" x="125.7" y="55.5" class="st2" width="0.1" height="7.8"/>
		<rect id="XMLID_957_" x="126.7" y="83.4" class="st2" width="0.1" height="7.8"/>
		<rect id="XMLID_956_" x="117" y="70.2" class="st2" width="0.1" height="13"/>
		<polygon id="XMLID_1401_" class="st2" points="119.6,46.3 119.1,46.3 119.3,45.9 119.6,45.6 119.8,45.9 120.1,46.3 		"/>
		<polygon id="XMLID_1400_" class="st2" points="125.8,55.5 125.3,55.5 125.5,55.2 125.8,54.8 126,55.2 126.3,55.5 		"/>
		<polygon id="XMLID_1399_" class="st2" points="117.1,70.5 116.6,70.5 116.8,70.1 117.1,69.8 117.3,70.1 117.6,70.5 		"/>
		<polygon id="XMLID_1398_" class="st2" points="126.8,83.5 126.3,83.5 126.5,83.1 126.8,82.8 127,83.1 127.3,83.5 		"/>
	</g>
	<g id="XMLID_1568_">
		<rect id="XMLID_955_" x="123.8" y="35.2" class="st2" width="0.1" height="13"/>
		<rect id="XMLID_954_" x="130" y="44.7" class="st2" width="0.1" height="7.8"/>
		<rect id="XMLID_953_" x="131" y="72.6" class="st2" width="0.1" height="7.8"/>
		<rect id="XMLID_952_" x="121.3" y="59.3" class="st2" width="0.1" height="13"/>
		<polygon id="XMLID_1572_" class="st2" points="123.9,35.4 123.4,35.4 123.6,35.1 123.9,34.7 124.1,35.1 124.4,35.4 		"/>
		<polygon id="XMLID_1571_" class="st2" points="130.1,44.7 129.6,44.7 129.8,44.3 130.1,44 130.3,44.3 130.6,44.7 		"/>
		<polygon id="XMLID_1570_" class="st2" points="121.4,59.6 120.9,59.6 121.1,59.3 121.4,58.9 121.6,59.3 121.9,59.6 		"/>
		<polygon id="XMLID_1569_" class="st2" points="131.1,72.6 130.6,72.6 130.8,72.3 131.1,71.9 131.3,72.3 131.6,72.6 		"/>
	</g>
	<g id="XMLID_1559_">
		<rect id="XMLID_951_" x="70.8" y="61.1" class="st2" width="0.1" height="13"/>
		<rect id="XMLID_950_" x="77" y="70.5" class="st2" width="0.1" height="7.8"/>
		<rect id="XMLID_949_" x="78" y="98.4" class="st2" width="0.1" height="7.8"/>
		<rect id="XMLID_948_" x="68.3" y="85.2" class="st2" width="0.1" height="13"/>
		<polygon id="XMLID_1563_" class="st2" points="70.8,61.3 70.3,61.3 70.6,60.9 70.8,60.6 71.1,60.9 71.3,61.3 		"/>
		<polygon id="XMLID_1562_" class="st2" points="77.1,70.5 76.6,70.5 76.8,70.1 77.1,69.8 77.3,70.1 77.6,70.5 		"/>
		<polygon id="XMLID_1561_" class="st2" points="68.3,85.4 67.8,85.4 68.1,85.1 68.3,84.7 68.6,85.1 68.8,85.4 		"/>
		<polygon id="XMLID_1560_" class="st2" points="78,98.5 77.5,98.5 77.8,98.1 78,97.8 78.3,98.1 78.5,98.5 		"/>
	</g>
	<g id="XMLID_1541_">
		<rect id="XMLID_943_" x="116.9" y="31.8" class="st2" width="0.1" height="13"/>
		<rect id="XMLID_942_" x="123.1" y="41.2" class="st2" width="0.1" height="7.8"/>
		<rect id="XMLID_941_" x="124.1" y="69.1" class="st2" width="0.1" height="7.8"/>
		<rect id="XMLID_940_" x="114.4" y="55.9" class="st2" width="0.1" height="13"/>
		<polygon id="XMLID_1545_" class="st2" points="117,32 116.5,32 116.7,31.6 117,31.3 117.2,31.6 117.5,32 		"/>
		<polygon id="XMLID_1544_" class="st2" points="123.2,41.2 122.7,41.2 122.9,40.8 123.2,40.5 123.4,40.8 123.7,41.2 		"/>
		<polygon id="XMLID_1543_" class="st2" points="114.5,56.1 114,56.1 114.2,55.8 114.5,55.4 114.7,55.8 115,56.1 		"/>
		<polygon id="XMLID_1542_" class="st2" points="124.2,69.2 123.7,69.2 123.9,68.8 124.2,68.5 124.4,68.8 124.7,69.2 		"/>
	</g>
	<g id="XMLID_1532_">
		<rect id="XMLID_939_" x="30.6" y="44.4" class="st2" width="0.1" height="13"/>
		<rect id="XMLID_938_" x="36.8" y="53.8" class="st2" width="0.1" height="7.8"/>
		<rect id="XMLID_937_" x="37.8" y="81.8" class="st2" width="0.1" height="7.8"/>
		<rect id="XMLID_936_" x="28.1" y="68.5" class="st2" width="0.1" height="13"/>
		<polygon id="XMLID_1536_" class="st2" points="30.6,44.6 30.1,44.6 30.4,44.3 30.6,43.9 30.9,44.3 31.1,44.6 		"/>
		<polygon id="XMLID_1535_" class="st2" points="36.8,53.8 36.3,53.8 36.6,53.5 36.8,53.1 37.1,53.5 37.3,53.8 		"/>
		<polygon id="XMLID_1534_" class="st2" points="28.1,68.8 27.6,68.8 27.9,68.5 28.1,68.1 28.4,68.5 28.6,68.8 		"/>
		<polygon id="XMLID_1533_" class="st2" points="37.8,81.8 37.3,81.8 37.6,81.5 37.8,81.1 38.1,81.5 38.3,81.8 		"/>
	</g>
	<g id="XMLID_1523_">
		<rect id="XMLID_935_" x="46" y="32.9" class="st2" width="0.1" height="13"/>
		<rect id="XMLID_934_" x="52.2" y="42.3" class="st2" width="0.1" height="7.8"/>
		<rect id="XMLID_933_" x="53.2" y="70.3" class="st2" width="0.1" height="7.8"/>
		<rect id="XMLID_932_" x="43.5" y="57" class="st2" width="0.1" height="13"/>
		<polygon id="XMLID_1527_" class="st2" points="46,33.1 45.5,33.1 45.8,32.8 46,32.4 46.3,32.8 46.5,33.1 		"/>
		<polygon id="XMLID_1526_" class="st2" points="52.2,42.3 51.7,42.3 52,42 52.2,41.6 52.5,42 52.7,42.3 		"/>
		<polygon id="XMLID_1525_" class="st2" points="43.5,57.3 43,57.3 43.3,56.9 43.5,56.6 43.8,56.9 44,57.3 		"/>
		<polygon id="XMLID_1524_" class="st2" points="53.2,70.3 52.7,70.3 53,70 53.2,69.6 53.5,70 53.7,70.3 		"/>
	</g>
	<g id="XMLID_1514_">
		<rect id="XMLID_931_" x="86.4" y="60.4" class="st2" width="0.1" height="13"/>
		<rect id="XMLID_930_" x="92.6" y="69.9" class="st2" width="0.1" height="7.8"/>
		<rect id="XMLID_929_" x="93.6" y="97.8" class="st2" width="0.1" height="7.8"/>
		<rect id="XMLID_928_" x="83.9" y="84.5" class="st2" width="0.1" height="13"/>
		<polygon id="XMLID_1518_" class="st2" points="86.4,60.6 85.9,60.6 86.2,60.3 86.4,59.9 86.7,60.3 86.9,60.6 		"/>
		<polygon id="XMLID_1517_" class="st2" points="92.7,69.9 92.2,69.9 92.4,69.5 92.7,69.2 92.9,69.5 93.2,69.9 		"/>
		<polygon id="XMLID_1516_" class="st2" points="83.9,84.8 83.4,84.8 83.7,84.5 83.9,84.1 84.2,84.5 84.4,84.8 		"/>
		<polygon id="XMLID_1515_" class="st2" points="93.6,97.8 93.1,97.8 93.4,97.5 93.6,97.1 93.9,97.5 94.1,97.8 		"/>
	</g>
	<g id="XMLID_1505_">
		<rect id="XMLID_927_" x="13.4" y="46" class="st2" width="0.1" height="13"/>
		<rect id="XMLID_926_" x="19.6" y="55.4" class="st2" width="0.1" height="7.8"/>
		<rect id="XMLID_925_" x="20.6" y="83.3" class="st2" width="0.1" height="7.8"/>
		<rect id="XMLID_924_" x="10.9" y="70.1" class="st2" width="0.1" height="13"/>
		<polygon id="XMLID_1509_" class="st2" points="13.4,46.2 13,46.2 13.2,45.8 13.4,45.5 13.7,45.8 13.9,46.2 		"/>
		<polygon id="XMLID_1508_" class="st2" points="19.7,55.4 19.2,55.4 19.4,55 19.7,54.7 19.9,55 20.2,55.4 		"/>
		<polygon id="XMLID_1507_" class="st2" points="10.9,70.3 10.4,70.3 10.7,70 10.9,69.6 11.2,70 11.4,70.3 		"/>
		<polygon id="XMLID_1506_" class="st2" points="20.6,83.4 20.2,83.4 20.4,83 20.6,82.7 20.9,83 21.1,83.4 		"/>
	</g>
	<g id="XMLID_1496_">
		<rect id="XMLID_923_" x="107.6" y="27.5" class="st2" width="0.1" height="13"/>
		<rect id="XMLID_922_" x="113.8" y="37" class="st2" width="0.1" height="7.8"/>
		<rect id="XMLID_921_" x="114.8" y="64.9" class="st2" width="0.1" height="7.8"/>
		<rect id="XMLID_920_" x="105.1" y="51.6" class="st2" width="0.1" height="13"/>
		<polygon id="XMLID_1500_" class="st2" points="107.7,27.8 107.2,27.8 107.4,27.4 107.7,27 107.9,27.4 108.2,27.8 		"/>
		<polygon id="XMLID_1499_" class="st2" points="113.9,37 113.4,37 113.6,36.6 113.9,36.3 114.1,36.6 114.4,37 		"/>
		<polygon id="XMLID_1498_" class="st2" points="105.1,51.9 104.7,51.9 104.9,51.6 105.1,51.2 105.4,51.6 105.6,51.9 		"/>
		<polygon id="XMLID_1497_" class="st2" points="114.9,64.9 114.4,64.9 114.6,64.6 114.9,64.2 115.1,64.6 115.4,64.9 		"/>
	</g>
	<g id="XMLID_1487_">
		<rect id="XMLID_919_" x="139.6" y="41.7" class="st2" width="0.1" height="13"/>
		<rect id="XMLID_918_" x="145.8" y="51.1" class="st2" width="0.1" height="7.8"/>
		<rect id="XMLID_917_" x="146.8" y="79" class="st2" width="0.1" height="7.8"/>
		<rect id="XMLID_642_" x="137.1" y="65.8" class="st2" width="0.1" height="13"/>
		<polygon id="XMLID_1491_" class="st2" points="139.7,41.9 139.2,41.9 139.4,41.6 139.7,41.2 139.9,41.6 140.2,41.9 		"/>
		<polygon id="XMLID_1490_" class="st2" points="145.9,51.1 145.4,51.1 145.6,50.8 145.9,50.4 146.1,50.8 146.4,51.1 		"/>
		<polygon id="XMLID_1489_" class="st2" points="137.1,66.1 136.6,66.1 136.9,65.7 137.1,65.4 137.4,65.7 137.6,66.1 		"/>
		<polygon id="XMLID_1488_" class="st2" points="146.9,79.1 146.4,79.1 146.6,78.7 146.9,78.4 147.1,78.7 147.4,79.1 		"/>
	</g>
	<g id="XMLID_397_">
		<rect id="XMLID_916_" x="63" y="35.4" class="st2" width="0.1" height="13"/>
		<rect id="XMLID_915_" x="69.2" y="44.8" class="st2" width="0.1" height="7.8"/>
		<rect id="XMLID_641_" x="70.2" y="72.7" class="st2" width="0.1" height="7.8"/>
		<rect id="XMLID_399_" x="60.5" y="59.5" class="st2" width="0.1" height="13"/>
		<polygon id="XMLID_640_" class="st2" points="63,35.6 62.5,35.6 62.8,35.2 63,34.9 63.3,35.2 63.5,35.6 		"/>
		<polygon id="XMLID_639_" class="st2" points="69.2,44.8 68.7,44.8 69,44.4 69.2,44.1 69.5,44.4 69.7,44.8 		"/>
		<polygon id="XMLID_638_" class="st2" points="60.5,59.7 60,59.7 60.3,59.4 60.5,59 60.8,59.4 61,59.7 		"/>
		<polygon id="XMLID_398_" class="st2" points="70.2,72.8 69.7,72.8 70,72.4 70.2,72.1 70.5,72.4 70.7,72.8 		"/>
	</g>
	<g id="XMLID_389_">
		<rect id="XMLID_396_" x="57.7" y="63.1" class="st2" width="0.1" height="13"/>
		<rect id="XMLID_395_" x="63.9" y="72.5" class="st2" width="0.1" height="7.8"/>
		<rect id="XMLID_394_" x="64.9" y="100.4" class="st2" width="0.1" height="7.8"/>
		<rect id="XMLID_393_" x="55.2" y="87.2" class="st2" width="0.1" height="13"/>
		<polygon id="XMLID_1653_" class="st2" points="57.8,63.3 57.3,63.3 57.5,62.9 57.8,62.6 58,62.9 58.3,63.3 		"/>
		<polygon id="XMLID_392_" class="st2" points="64,72.5 63.5,72.5 63.7,72.1 64,71.8 64.2,72.1 64.5,72.5 		"/>
		<polygon id="XMLID_391_" class="st2" points="55.2,87.4 54.8,87.4 55,87.1 55.2,86.7 55.5,87.1 55.7,87.4 		"/>
		<polygon id="XMLID_390_" class="st2" points="65,100.5 64.5,100.5 64.7,100.1 65,99.8 65.2,100.1 65.5,100.5 		"/>
	</g>
	<g id="XMLID_1640_">
		<rect id="XMLID_914_" x="79.6" y="53.1" class="st2" width="0.1" height="13"/>
		<rect id="XMLID_388_" x="85.8" y="62.5" class="st2" width="0.1" height="7.8"/>
		<rect id="XMLID_387_" x="86.8" y="90.4" class="st2" width="0.1" height="7.8"/>
		<rect id="XMLID_386_" x="77.1" y="77.1" class="st2" width="0.1" height="13"/>
		<polygon id="XMLID_385_" class="st2" points="79.7,53.3 79.2,53.3 79.4,52.9 79.7,52.6 79.9,52.9 80.2,53.3 		"/>
		<polygon id="XMLID_384_" class="st2" points="85.9,62.5 85.4,62.5 85.6,62.1 85.9,61.8 86.1,62.1 86.4,62.5 		"/>
		<polygon id="XMLID_383_" class="st2" points="77.1,77.4 76.6,77.4 76.9,77.1 77.1,76.7 77.4,77.1 77.6,77.4 		"/>
		<polygon id="XMLID_1641_" class="st2" points="86.9,90.5 86.4,90.5 86.6,90.1 86.9,89.8 87.1,90.1 87.4,90.5 		"/>
	</g>
	<g id="XMLID_1631_">
		<rect id="XMLID_913_" x="108.6" y="30.5" class="st2" width="0.1" height="13"/>
		<rect id="XMLID_382_" x="114.8" y="40" class="st2" width="0.1" height="7.8"/>
		<rect id="XMLID_912_" x="115.8" y="67.9" class="st2" width="0.1" height="7.8"/>
		<rect id="XMLID_911_" x="106.1" y="54.6" class="st2" width="0.1" height="13"/>
		<polygon id="XMLID_1635_" class="st2" points="108.6,30.7 108.1,30.7 108.4,30.4 108.6,30 108.9,30.4 109.1,30.7 		"/>
		<polygon id="XMLID_1634_" class="st2" points="114.8,40 114.3,40 114.6,39.6 114.8,39.3 115.1,39.6 115.3,40 		"/>
		<polygon id="XMLID_1633_" class="st2" points="106.1,54.9 105.6,54.9 105.9,54.6 106.1,54.2 106.4,54.6 106.6,54.9 		"/>
		<polygon id="XMLID_1632_" class="st2" points="115.8,67.9 115.3,67.9 115.6,67.6 115.8,67.2 116.1,67.6 116.3,67.9 		"/>
	</g>
	<g id="XMLID_1622_">
		<rect id="XMLID_910_" x="108.4" y="43.1" class="st2" width="0.1" height="13"/>
		<rect id="XMLID_909_" x="114.6" y="52.5" class="st2" width="0.1" height="7.8"/>
		<rect id="XMLID_908_" x="115.6" y="80.4" class="st2" width="0.1" height="7.8"/>
		<rect id="XMLID_907_" x="105.9" y="67.2" class="st2" width="0.1" height="13"/>
		<polygon id="XMLID_1626_" class="st2" points="108.4,43.3 107.9,43.3 108.2,42.9 108.4,42.6 108.7,42.9 108.9,43.3 		"/>
		<polygon id="XMLID_1625_" class="st2" points="114.6,52.5 114.1,52.5 114.4,52.1 114.6,51.8 114.9,52.1 115.1,52.5 		"/>
		<polygon id="XMLID_1624_" class="st2" points="105.9,67.5 105.4,67.5 105.7,67.1 105.9,66.7 106.2,67.1 106.4,67.5 		"/>
		<polygon id="XMLID_1623_" class="st2" points="115.6,80.5 115.1,80.5 115.4,80.1 115.6,79.8 115.9,80.1 116.1,80.5 		"/>
	</g>
	<g id="XMLID_1613_">
		<rect id="XMLID_906_" x="64.9" y="35.9" class="st2" width="0.1" height="13"/>
		<rect id="XMLID_905_" x="71.1" y="45.3" class="st2" width="0.1" height="7.8"/>
		<rect id="XMLID_904_" x="72.1" y="73.2" class="st2" width="0.1" height="7.8"/>
		<rect id="XMLID_903_" x="62.4" y="60" class="st2" width="0.1" height="13"/>
		<polygon id="XMLID_1617_" class="st2" points="64.9,36.1 64.4,36.1 64.7,35.8 64.9,35.4 65.2,35.8 65.4,36.1 		"/>
		<polygon id="XMLID_1616_" class="st2" points="71.1,45.3 70.7,45.3 70.9,45 71.1,44.6 71.4,45 71.6,45.3 		"/>
		<polygon id="XMLID_1615_" class="st2" points="62.4,60.3 61.9,60.3 62.2,59.9 62.4,59.6 62.7,59.9 62.9,60.3 		"/>
		<polygon id="XMLID_1614_" class="st2" points="72.1,73.3 71.6,73.3 71.9,72.9 72.1,72.6 72.4,72.9 72.6,73.3 		"/>
	</g>
	<g id="XMLID_1604_">
		<rect id="XMLID_902_" x="65" y="60.6" class="st2" width="0.1" height="13"/>
		<rect id="XMLID_901_" x="71.2" y="70.1" class="st2" width="0.1" height="7.8"/>
		<rect id="XMLID_381_" x="72.2" y="98" class="st2" width="0.1" height="7.8"/>
		<rect id="XMLID_380_" x="62.6" y="84.7" class="st2" width="0.1" height="13"/>
		<polygon id="XMLID_1608_" class="st2" points="65.1,60.8 64.6,60.8 64.8,60.5 65.1,60.1 65.3,60.5 65.6,60.8 		"/>
		<polygon id="XMLID_1607_" class="st2" points="71.3,70.1 70.8,70.1 71,69.7 71.3,69.3 71.5,69.7 71.8,70.1 		"/>
		<polygon id="XMLID_1606_" class="st2" points="62.6,85 62.1,85 62.3,84.7 62.6,84.3 62.8,84.7 63.1,85 		"/>
		<polygon id="XMLID_1605_" class="st2" points="72.3,98 71.8,98 72,97.7 72.3,97.3 72.5,97.7 72.8,98 		"/>
	</g>
	<g id="XMLID_1595_">
		<rect id="XMLID_379_" x="31.4" y="47.7" class="st2" width="0.1" height="13"/>
		<rect id="XMLID_897_" x="37.6" y="57.1" class="st2" width="0.1" height="7.8"/>
		<rect id="XMLID_896_" x="38.6" y="85.1" class="st2" width="0.1" height="7.8"/>
		<rect id="XMLID_895_" x="28.9" y="71.8" class="st2" width="0.1" height="13"/>
		<polygon id="XMLID_1599_" class="st2" points="31.4,47.9 30.9,47.9 31.2,47.6 31.4,47.2 31.7,47.6 31.9,47.9 		"/>
		<polygon id="XMLID_1598_" class="st2" points="37.6,57.1 37.1,57.1 37.4,56.8 37.6,56.4 37.9,56.8 38.1,57.1 		"/>
		<polygon id="XMLID_1597_" class="st2" points="28.9,72.1 28.4,72.1 28.7,71.8 28.9,71.4 29.2,71.8 29.4,72.1 		"/>
		<polygon id="XMLID_1596_" class="st2" points="38.6,85.1 38.1,85.1 38.4,84.8 38.6,84.4 38.9,84.8 39.1,85.1 		"/>
	</g>
	<g id="XMLID_1586_">
		<rect id="XMLID_894_" x="6.3" y="29.4" class="st2" width="0.1" height="13"/>
		<rect id="XMLID_378_" x="12.5" y="38.9" class="st2" width="0.1" height="7.8"/>
		<rect id="XMLID_892_" x="13.5" y="66.8" class="st2" width="0.1" height="7.8"/>
		<rect id="XMLID_891_" x="3.9" y="53.5" class="st2" width="0.1" height="13"/>
		<polygon id="XMLID_1590_" class="st2" points="6.4,29.6 5.9,29.6 6.1,29.3 6.4,28.9 6.6,29.3 6.9,29.6 		"/>
		<polygon id="XMLID_1589_" class="st2" points="12.6,38.9 12.1,38.9 12.4,38.5 12.6,38.2 12.9,38.5 13.1,38.9 		"/>
		<polygon id="XMLID_1588_" class="st2" points="3.9,53.8 3.4,53.8 3.6,53.5 3.9,53.1 4.1,53.5 4.4,53.8 		"/>
		<polygon id="XMLID_1587_" class="st2" points="13.6,66.8 13.1,66.8 13.3,66.5 13.6,66.1 13.8,66.5 14.1,66.8 		"/>
	</g>
	<g id="XMLID_1577_">
		<rect id="XMLID_890_" x="156.2" y="45" class="st2" width="0.1" height="13"/>
		<rect id="XMLID_889_" x="162.4" y="54.5" class="st2" width="0.1" height="7.8"/>
		<rect id="XMLID_888_" x="163.4" y="82.4" class="st2" width="0.1" height="7.8"/>
		<rect id="XMLID_887_" x="153.8" y="69.1" class="st2" width="0.1" height="13"/>
		<polygon id="XMLID_1581_" class="st2" points="156.3,45.2 155.8,45.2 156,44.9 156.3,44.5 156.5,44.9 156.8,45.2 		"/>
		<polygon id="XMLID_1580_" class="st2" points="162.5,54.5 162,54.5 162.3,54.1 162.5,53.8 162.8,54.1 163,54.5 		"/>
		<polygon id="XMLID_1579_" class="st2" points="153.8,69.4 153.3,69.4 153.5,69.1 153.8,68.7 154,69.1 154.3,69.4 		"/>
		<polygon id="XMLID_1578_" class="st2" points="163.5,82.4 163,82.4 163.2,82.1 163.5,81.7 163.7,82.1 164,82.4 		"/>
	</g>
	<g id="XMLID_376_">
		<rect id="XMLID_886_" x="124.7" y="35.5" class="st2" width="0.1" height="13"/>
		<rect id="XMLID_885_" x="130.9" y="44.9" class="st2" width="0.1" height="7.8"/>
		<rect id="XMLID_884_" x="131.9" y="72.8" class="st2" width="0.1" height="7.8"/>
		<rect id="XMLID_377_" x="122.2" y="59.6" class="st2" width="0.1" height="13"/>
		<polygon id="XMLID_1752_" class="st2" points="124.8,35.7 124.3,35.7 124.5,35.4 124.8,35 125,35.4 125.2,35.7 		"/>
		<polygon id="XMLID_1751_" class="st2" points="131,44.9 130.5,44.9 130.7,44.6 131,44.2 131.2,44.6 131.5,44.9 		"/>
		<polygon id="XMLID_1750_" class="st2" points="122.2,59.9 121.7,59.9 122,59.5 122.2,59.2 122.5,59.5 122.7,59.9 		"/>
		<polygon id="XMLID_1749_" class="st2" points="131.9,72.9 131.5,72.9 131.7,72.5 131.9,72.2 132.2,72.5 132.4,72.9 		"/>
	</g>
	<g id="XMLID_367_">
		<rect id="XMLID_375_" x="151.1" y="59.3" class="st2" width="0.1" height="13"/>
		<rect id="XMLID_374_" x="157.3" y="68.7" class="st2" width="0.1" height="7.8"/>
		<rect id="XMLID_373_" x="158.2" y="96.6" class="st2" width="0.1" height="7.8"/>
		<rect id="XMLID_372_" x="148.6" y="83.4" class="st2" width="0.1" height="13"/>
		<polygon id="XMLID_371_" class="st2" points="151.1,59.5 150.6,59.5 150.9,59.1 151.1,58.8 151.4,59.1 151.6,59.5 		"/>
		<polygon id="XMLID_370_" class="st2" points="157.3,68.7 156.8,68.7 157.1,68.3 157.3,68 157.6,68.3 157.8,68.7 		"/>
		<polygon id="XMLID_369_" class="st2" points="148.6,83.6 148.1,83.6 148.3,83.3 148.6,82.9 148.8,83.3 149.1,83.6 		"/>
		<polygon id="XMLID_368_" class="st2" points="158.3,96.7 157.8,96.7 158.1,96.3 158.3,96 158.6,96.3 158.8,96.7 		"/>
	</g>
	<g id="XMLID_358_">
		<rect id="XMLID_366_" x="45.6" y="49.6" class="st2" width="0.1" height="13"/>
		<rect id="XMLID_365_" x="51.8" y="59" class="st2" width="0.1" height="7.8"/>
		<rect id="XMLID_364_" x="52.8" y="86.9" class="st2" width="0.1" height="7.8"/>
		<rect id="XMLID_363_" x="43.1" y="73.7" class="st2" width="0.1" height="13"/>
		<polygon id="XMLID_362_" class="st2" points="45.6,49.8 45.1,49.8 45.4,49.4 45.6,49.1 45.9,49.4 46.1,49.8 		"/>
		<polygon id="XMLID_361_" class="st2" points="51.8,59 51.3,59 51.6,58.7 51.8,58.3 52.1,58.7 52.3,59 		"/>
		<polygon id="XMLID_360_" class="st2" points="43.1,74 42.6,74 42.9,73.6 43.1,73.3 43.4,73.6 43.6,74 		"/>
		<polygon id="XMLID_359_" class="st2" points="52.8,87 52.3,87 52.6,86.6 52.8,86.3 53.1,86.6 53.3,87 		"/>
	</g>
	<g id="XMLID_349_">
		<rect id="XMLID_357_" x="64.1" y="31.2" class="st2" width="0.1" height="13"/>
		<rect id="XMLID_356_" x="70.3" y="40.7" class="st2" width="0.1" height="7.8"/>
		<rect id="XMLID_355_" x="71.3" y="68.6" class="st2" width="0.1" height="7.8"/>
		<rect id="XMLID_354_" x="61.6" y="55.3" class="st2" width="0.1" height="13"/>
		<polygon id="XMLID_353_" class="st2" points="64.1,31.5 63.6,31.5 63.9,31.1 64.1,30.8 64.4,31.1 64.6,31.5 		"/>
		<polygon id="XMLID_352_" class="st2" points="70.3,40.7 69.8,40.7 70.1,40.3 70.3,40 70.6,40.3 70.8,40.7 		"/>
		<polygon id="XMLID_351_" class="st2" points="61.6,55.6 61.1,55.6 61.4,55.3 61.6,54.9 61.9,55.3 62.1,55.6 		"/>
		<polygon id="XMLID_350_" class="st2" points="71.3,68.6 70.8,68.6 71.1,68.3 71.3,67.9 71.6,68.3 71.8,68.6 		"/>
	</g>
	<g id="XMLID_340_">
		<rect id="XMLID_348_" x="69.1" y="45.2" class="st2" width="0.1" height="13"/>
		<rect id="XMLID_347_" x="75.3" y="54.6" class="st2" width="0.1" height="7.8"/>
		<rect id="XMLID_346_" x="76.3" y="82.5" class="st2" width="0.1" height="7.8"/>
		<rect id="XMLID_345_" x="66.6" y="69.3" class="st2" width="0.1" height="13"/>
		<polygon id="XMLID_344_" class="st2" points="69.1,45.4 68.6,45.4 68.9,45 69.1,44.7 69.4,45 69.6,45.4 		"/>
		<polygon id="XMLID_343_" class="st2" points="75.3,54.6 74.8,54.6 75.1,54.3 75.3,53.9 75.6,54.3 75.8,54.6 		"/>
		<polygon id="XMLID_342_" class="st2" points="66.6,69.6 66.1,69.6 66.4,69.2 66.6,68.9 66.8,69.2 67.1,69.6 		"/>
		<polygon id="XMLID_341_" class="st2" points="76.3,82.6 75.8,82.6 76.1,82.2 76.3,81.9 76.6,82.2 76.8,82.6 		"/>
	</g>
	<g id="XMLID_331_">
		<rect id="XMLID_339_" x="121.1" y="36.6" class="st2" width="0.1" height="13"/>
		<rect id="XMLID_338_" x="127.3" y="46" class="st2" width="0.1" height="7.8"/>
		<rect id="XMLID_337_" x="128.3" y="73.9" class="st2" width="0.1" height="7.8"/>
		<rect id="XMLID_336_" x="118.6" y="60.7" class="st2" width="0.1" height="13"/>
		<polygon id="XMLID_335_" class="st2" points="121.1,36.8 120.6,36.8 120.9,36.5 121.1,36.1 121.4,36.5 121.6,36.8 		"/>
		<polygon id="XMLID_334_" class="st2" points="127.3,46 126.8,46 127.1,45.7 127.3,45.3 127.6,45.7 127.8,46 		"/>
		<polygon id="XMLID_333_" class="st2" points="118.6,61 118.1,61 118.4,60.6 118.6,60.3 118.9,60.6 119.1,61 		"/>
		<polygon id="XMLID_332_" class="st2" points="128.3,74 127.8,74 128.1,73.7 128.3,73.3 128.6,73.7 128.8,74 		"/>
	</g>
	<g id="XMLID_269_">
		<rect id="XMLID_317_" x="99.1" y="56.2" class="st2" width="0.1" height="13"/>
		<rect id="XMLID_281_" x="105.3" y="65.7" class="st2" width="0.1" height="7.8"/>
		<rect id="XMLID_280_" x="106.3" y="93.6" class="st2" width="0.1" height="7.8"/>
		<rect id="XMLID_279_" x="96.6" y="80.3" class="st2" width="0.1" height="13"/>
		<polygon id="XMLID_274_" class="st2" points="99.1,56.4 98.6,56.4 98.9,56.1 99.1,55.7 99.4,56.1 99.6,56.4 		"/>
		<polygon id="XMLID_273_" class="st2" points="105.3,65.7 104.8,65.7 105.1,65.3 105.3,65 105.6,65.3 105.8,65.7 		"/>
		<polygon id="XMLID_272_" class="st2" points="96.6,80.6 96.1,80.6 96.4,80.3 96.6,79.9 96.9,80.3 97.1,80.6 		"/>
		<polygon id="XMLID_271_" class="st2" points="106.3,93.6 105.8,93.6 106.1,93.3 106.3,92.9 106.6,93.3 106.8,93.6 		"/>
	</g>
	<g id="XMLID_253_">
		<rect id="XMLID_268_" x="80.2" y="47.3" class="st2" width="0.1" height="13"/>
		<rect id="XMLID_267_" x="86.4" y="56.7" class="st2" width="0.1" height="7.8"/>
		<rect id="XMLID_266_" x="87.4" y="84.6" class="st2" width="0.1" height="7.8"/>
		<rect id="XMLID_265_" x="77.7" y="71.4" class="st2" width="0.1" height="13"/>
		<polygon id="XMLID_257_" class="st2" points="80.3,47.5 79.8,47.5 80,47.1 80.3,46.8 80.5,47.1 80.8,47.5 		"/>
		<polygon id="XMLID_256_" class="st2" points="86.5,56.7 86,56.7 86.2,56.4 86.5,56 86.7,56.4 87,56.7 		"/>
		<polygon id="XMLID_255_" class="st2" points="77.8,71.7 77.3,71.7 77.5,71.3 77.8,71 78,71.3 78.3,71.7 		"/>
		<polygon id="XMLID_254_" class="st2" points="87.5,84.7 87,84.7 87.2,84.3 87.5,84 87.7,84.3 88,84.7 		"/>
	</g>
	<g id="XMLID_244_">
		<rect id="XMLID_252_" x="104" y="29.6" class="st2" width="0.1" height="13"/>
		<rect id="XMLID_251_" x="110.2" y="39" class="st2" width="0.1" height="7.8"/>
		<rect id="XMLID_250_" x="111.2" y="66.9" class="st2" width="0.1" height="7.8"/>
		<rect id="XMLID_249_" x="101.5" y="53.7" class="st2" width="0.1" height="13"/>
		<polygon id="XMLID_248_" class="st2" points="104.1,29.8 103.6,29.8 103.8,29.5 104.1,29.1 104.3,29.5 104.6,29.8 		"/>
		<polygon id="XMLID_247_" class="st2" points="110.3,39 109.8,39 110,38.7 110.3,38.3 110.5,38.7 110.8,39 		"/>
		<polygon id="XMLID_246_" class="st2" points="101.5,54 101,54 101.3,53.6 101.5,53.3 101.8,53.6 102,54 		"/>
		<polygon id="XMLID_245_" class="st2" points="111.3,67 110.8,67 111,66.6 111.3,66.3 111.5,66.6 111.8,67 		"/>
	</g>
	<g id="XMLID_1667_">
		<rect id="XMLID_883_" x="112.8" y="41.4" class="st2" width="0.1" height="13"/>
		<rect id="XMLID_243_" x="119" y="50.9" class="st2" width="0.1" height="7.8"/>
		<rect id="XMLID_240_" x="120" y="78.8" class="st2" width="0.1" height="7.8"/>
		<rect id="XMLID_882_" x="110.3" y="65.5" class="st2" width="0.1" height="13"/>
		<polygon id="XMLID_239_" class="st2" points="112.8,41.7 112.4,41.7 112.6,41.3 112.8,40.9 113.1,41.3 113.3,41.7 		"/>
		<polygon id="XMLID_237_" class="st2" points="119.1,50.9 118.6,50.9 118.8,50.5 119.1,50.2 119.3,50.5 119.6,50.9 		"/>
		<polygon id="XMLID_236_" class="st2" points="110.3,65.8 109.8,65.8 110.1,65.5 110.3,65.1 110.6,65.5 110.8,65.8 		"/>
		<polygon id="XMLID_235_" class="st2" points="120,78.8 119.5,78.8 119.8,78.5 120,78.1 120.3,78.5 120.5,78.8 		"/>
	</g>
	<g id="XMLID_1838_">
		<rect id="XMLID_881_" x="44.1" y="37.6" class="st2" width="0.1" height="13"/>
		<rect id="XMLID_880_" x="50.3" y="47" class="st2" width="0.1" height="7.8"/>
		<rect id="XMLID_879_" x="51.3" y="74.9" class="st2" width="0.1" height="7.8"/>
		<rect id="XMLID_878_" x="41.6" y="61.7" class="st2" width="0.1" height="13"/>
		<polygon id="XMLID_1842_" class="st2" points="44.2,37.8 43.7,37.8 43.9,37.4 44.2,37.1 44.4,37.4 44.7,37.8 		"/>
		<polygon id="XMLID_1841_" class="st2" points="50.4,47 49.9,47 50.1,46.6 50.4,46.3 50.6,46.6 50.9,47 		"/>
		<polygon id="XMLID_1840_" class="st2" points="41.7,61.9 41.2,61.9 41.4,61.6 41.7,61.2 41.9,61.6 42.2,61.9 		"/>
		<polygon id="XMLID_1839_" class="st2" points="51.4,75 50.9,75 51.1,74.6 51.4,74.3 51.6,74.6 51.9,75 		"/>
	</g>
	<g id="XMLID_1829_">
		<rect id="XMLID_877_" x="90.4" y="61.9" class="st2" width="0.1" height="13"/>
		<rect id="XMLID_876_" x="96.6" y="71.3" class="st2" width="0.1" height="7.8"/>
		<rect id="XMLID_875_" x="97.6" y="99.2" class="st2" width="0.1" height="7.8"/>
		<rect id="XMLID_874_" x="87.9" y="86" class="st2" width="0.1" height="13"/>
		<polygon id="XMLID_1833_" class="st2" points="90.4,62.1 89.9,62.1 90.2,61.7 90.4,61.4 90.7,61.7 90.9,62.1 		"/>
		<polygon id="XMLID_1832_" class="st2" points="96.6,71.3 96.1,71.3 96.4,70.9 96.6,70.6 96.9,70.9 97.1,71.3 		"/>
		<polygon id="XMLID_1831_" class="st2" points="87.9,86.3 87.4,86.3 87.7,85.9 87.9,85.6 88.2,85.9 88.4,86.3 		"/>
		<polygon id="XMLID_1830_" class="st2" points="97.6,99.3 97.1,99.3 97.4,98.9 97.6,98.6 97.9,98.9 98.1,99.3 		"/>
	</g>
	<g id="XMLID_1820_">
		<rect id="XMLID_873_" x="94" y="53.6" class="st2" width="0.1" height="13"/>
		<rect id="XMLID_872_" x="100.2" y="63" class="st2" width="0.1" height="7.8"/>
		<rect id="XMLID_871_" x="101.2" y="90.9" class="st2" width="0.1" height="7.8"/>
		<rect id="XMLID_870_" x="91.5" y="77.7" class="st2" width="0.1" height="13"/>
		<polygon id="XMLID_1824_" class="st2" points="94.1,53.8 93.6,53.8 93.8,53.4 94.1,53.1 94.3,53.4 94.6,53.8 		"/>
		<polygon id="XMLID_1823_" class="st2" points="100.3,63 99.8,63 100,62.6 100.3,62.3 100.5,62.6 100.8,63 		"/>
		<polygon id="XMLID_1822_" class="st2" points="91.6,77.9 91.1,77.9 91.3,77.6 91.6,77.2 91.8,77.6 92.1,77.9 		"/>
		<polygon id="XMLID_1821_" class="st2" points="101.3,91 100.8,91 101,90.6 101.3,90.3 101.5,90.6 101.8,91 		"/>
	</g>
	<g id="XMLID_1811_">
		<rect id="XMLID_869_" x="67.8" y="29.7" class="st2" width="0.1" height="13"/>
		<rect id="XMLID_868_" x="74" y="39.1" class="st2" width="0.1" height="7.8"/>
		<rect id="XMLID_867_" x="75" y="67.1" class="st2" width="0.1" height="7.8"/>
		<rect id="XMLID_866_" x="65.3" y="53.8" class="st2" width="0.1" height="13"/>
		<polygon id="XMLID_1815_" class="st2" points="67.8,29.9 67.3,29.9 67.6,29.6 67.8,29.2 68.1,29.6 68.3,29.9 		"/>
		<polygon id="XMLID_1814_" class="st2" points="74,39.1 73.5,39.1 73.8,38.8 74,38.4 74.3,38.8 74.5,39.1 		"/>
		<polygon id="XMLID_1813_" class="st2" points="65.3,54.1 64.8,54.1 65.1,53.7 65.3,53.4 65.6,53.7 65.8,54.1 		"/>
		<polygon id="XMLID_1812_" class="st2" points="75,67.1 74.5,67.1 74.8,66.8 75,66.4 75.3,66.8 75.5,67.1 		"/>
	</g>
	<g id="XMLID_1802_">
		<rect id="XMLID_865_" x="105.3" y="41.4" class="st2" width="0.1" height="13"/>
		<rect id="XMLID_864_" x="111.5" y="50.8" class="st2" width="0.1" height="7.8"/>
		<rect id="XMLID_863_" x="112.5" y="78.7" class="st2" width="0.1" height="7.8"/>
		<rect id="XMLID_862_" x="102.8" y="65.5" class="st2" width="0.1" height="13"/>
		<polygon id="XMLID_1806_" class="st2" points="105.3,41.6 104.8,41.6 105.1,41.2 105.3,40.9 105.6,41.2 105.8,41.6 		"/>
		<polygon id="XMLID_1805_" class="st2" points="111.5,50.8 111,50.8 111.3,50.5 111.5,50.1 111.8,50.5 112,50.8 		"/>
		<polygon id="XMLID_1804_" class="st2" points="102.8,65.8 102.3,65.8 102.6,65.4 102.8,65.1 103.1,65.4 103.3,65.8 		"/>
		<polygon id="XMLID_1803_" class="st2" points="112.5,78.8 112,78.8 112.3,78.4 112.5,78.1 112.8,78.4 113,78.8 		"/>
	</g>
	<g id="XMLID_1793_">
		<rect id="XMLID_861_" x="111.6" y="30.9" class="st2" width="0.1" height="13"/>
		<rect id="XMLID_860_" x="117.8" y="40.3" class="st2" width="0.1" height="7.8"/>
		<rect id="XMLID_859_" x="118.8" y="68.2" class="st2" width="0.1" height="7.8"/>
		<rect id="XMLID_858_" x="109.2" y="55" class="st2" width="0.1" height="13"/>
		<polygon id="XMLID_1797_" class="st2" points="111.7,31.1 111.2,31.1 111.4,30.8 111.7,30.4 111.9,30.8 112.2,31.1 		"/>
		<polygon id="XMLID_1796_" class="st2" points="117.9,40.3 117.4,40.3 117.6,40 117.9,39.6 118.1,40 118.4,40.3 		"/>
		<polygon id="XMLID_1795_" class="st2" points="109.2,55.3 108.7,55.3 108.9,54.9 109.2,54.6 109.4,54.9 109.7,55.3 		"/>
		<polygon id="XMLID_1794_" class="st2" points="118.9,68.3 118.4,68.3 118.6,68 118.9,67.6 119.1,68 119.4,68.3 		"/>
	</g>
	<g id="XMLID_1784_">
		<rect id="XMLID_857_" x="101.2" y="58.6" class="st2" width="0.1" height="13"/>
		<rect id="XMLID_856_" x="107.5" y="68.1" class="st2" width="0.1" height="7.8"/>
		<rect id="XMLID_855_" x="108.4" y="96" class="st2" width="0.1" height="7.8"/>
		<rect id="XMLID_854_" x="98.8" y="82.7" class="st2" width="0.1" height="13"/>
		<polygon id="XMLID_1788_" class="st2" points="101.3,58.8 100.8,58.8 101.1,58.5 101.3,58.1 101.5,58.5 101.8,58.8 		"/>
		<polygon id="XMLID_1787_" class="st2" points="107.5,68.1 107,68.1 107.3,67.7 107.5,67.4 107.8,67.7 108,68.1 		"/>
		<polygon id="XMLID_1786_" class="st2" points="98.8,83 98.3,83 98.5,82.7 98.8,82.3 99,82.7 99.3,83 		"/>
		<polygon id="XMLID_1785_" class="st2" points="108.5,96 108,96 108.2,95.7 108.5,95.3 108.7,95.7 109,96 		"/>
	</g>
	<g id="XMLID_1775_">
		<rect id="XMLID_853_" x="89.6" y="50.8" class="st2" width="0.1" height="13"/>
		<rect id="XMLID_852_" x="95.8" y="60.3" class="st2" width="0.1" height="7.8"/>
		<rect id="XMLID_851_" x="96.8" y="88.2" class="st2" width="0.1" height="7.8"/>
		<rect id="XMLID_850_" x="87.1" y="74.9" class="st2" width="0.1" height="13"/>
		<polygon id="XMLID_1779_" class="st2" points="89.7,51 89.2,51 89.4,50.7 89.7,50.3 89.9,50.7 90.2,51 		"/>
		<polygon id="XMLID_1778_" class="st2" points="95.9,60.3 95.4,60.3 95.6,59.9 95.9,59.6 96.1,59.9 96.4,60.3 		"/>
		<polygon id="XMLID_1777_" class="st2" points="87.2,75.2 86.7,75.2 86.9,74.9 87.2,74.5 87.4,74.9 87.7,75.2 		"/>
		<polygon id="XMLID_1776_" class="st2" points="96.9,88.2 96.4,88.2 96.6,87.9 96.9,87.5 97.1,87.9 97.4,88.2 		"/>
	</g>
	<g id="XMLID_1766_">
		<rect id="XMLID_849_" x="103.4" y="28.9" class="st2" width="0.1" height="13"/>
		<rect id="XMLID_848_" x="109.6" y="38.3" class="st2" width="0.1" height="7.8"/>
		<rect id="XMLID_847_" x="110.6" y="66.2" class="st2" width="0.1" height="7.8"/>
		<rect id="XMLID_846_" x="101" y="53" class="st2" width="0.1" height="13"/>
		<polygon id="XMLID_1770_" class="st2" points="103.5,29.1 103,29.1 103.2,28.7 103.5,28.4 103.7,28.7 104,29.1 		"/>
		<polygon id="XMLID_1769_" class="st2" points="109.7,38.3 109.2,38.3 109.5,38 109.7,37.6 110,38 110.2,38.3 		"/>
		<polygon id="XMLID_1768_" class="st2" points="101,53.3 100.5,53.3 100.7,52.9 101,52.6 101.2,52.9 101.5,53.3 		"/>
		<polygon id="XMLID_1767_" class="st2" points="110.7,66.3 110.2,66.3 110.4,65.9 110.7,65.6 110.9,65.9 111.2,66.3 		"/>
	</g>
	<g id="XMLID_1757_">
		<rect id="XMLID_845_" x="87.3" y="41.8" class="st2" width="0.1" height="13"/>
		<rect id="XMLID_844_" x="93.5" y="51.2" class="st2" width="0.1" height="7.8"/>
		<rect id="XMLID_843_" x="94.5" y="79.2" class="st2" width="0.1" height="7.8"/>
		<rect id="XMLID_842_" x="84.8" y="65.9" class="st2" width="0.1" height="13"/>
		<polygon id="XMLID_1761_" class="st2" points="87.4,42 86.9,42 87.1,41.7 87.4,41.3 87.6,41.7 87.9,42 		"/>
		<polygon id="XMLID_1760_" class="st2" points="93.6,51.2 93.1,51.2 93.3,50.9 93.6,50.5 93.8,50.9 94.1,51.2 		"/>
		<polygon id="XMLID_1759_" class="st2" points="84.9,66.2 84.4,66.2 84.6,65.8 84.9,65.5 85.1,65.8 85.4,66.2 		"/>
		<polygon id="XMLID_1758_" class="st2" points="94.6,79.2 94.1,79.2 94.3,78.9 94.6,78.5 94.8,78.9 95.1,79.2 		"/>
	</g>
	<g id="XMLID_1928_">
		<rect id="XMLID_841_" x="164.9" y="36.5" class="st2" width="0.1" height="13"/>
		<rect id="XMLID_234_" x="171.1" y="45.9" class="st2" width="0.1" height="7.8"/>
		<rect id="XMLID_233_" x="172.1" y="73.8" class="st2" width="0.1" height="7.8"/>
		<rect id="XMLID_232_" x="162.4" y="60.6" class="st2" width="0.1" height="13"/>
		<polygon id="XMLID_1932_" class="st2" points="164.9,36.7 164.4,36.7 164.7,36.3 164.9,36 165.2,36.3 165.4,36.7 		"/>
		<polygon id="XMLID_1931_" class="st2" points="171.1,45.9 170.6,45.9 170.9,45.5 171.1,45.2 171.4,45.5 171.6,45.9 		"/>
		<polygon id="XMLID_1930_" class="st2" points="162.4,60.8 161.9,60.8 162.2,60.5 162.4,60.1 162.7,60.5 162.9,60.8 		"/>
		<polygon id="XMLID_1929_" class="st2" points="172.1,73.9 171.6,73.9 171.9,73.5 172.1,73.2 172.4,73.5 172.6,73.9 		"/>
	</g>
	<g id="XMLID_1919_">
		<rect id="XMLID_837_" x="182.1" y="63.2" class="st2" width="0.1" height="13"/>
		<rect id="XMLID_836_" x="188.3" y="72.6" class="st2" width="0.1" height="7.8"/>
		<rect id="XMLID_835_" x="189.3" y="100.5" class="st2" width="0.1" height="7.8"/>
		<rect id="XMLID_834_" x="179.6" y="87.3" class="st2" width="0.1" height="13"/>
		<polygon id="XMLID_1923_" class="st2" points="182.2,63.4 181.7,63.4 181.9,63.1 182.2,62.7 182.4,63.1 182.7,63.4 		"/>
		<polygon id="XMLID_1922_" class="st2" points="188.4,72.6 187.9,72.6 188.1,72.3 188.4,71.9 188.6,72.3 188.9,72.6 		"/>
		<polygon id="XMLID_1921_" class="st2" points="179.6,87.6 179.1,87.6 179.4,87.2 179.6,86.9 179.9,87.2 180.1,87.6 		"/>
		<polygon id="XMLID_1920_" class="st2" points="189.4,100.6 188.9,100.6 189.1,100.3 189.4,99.9 189.6,100.3 189.9,100.6 		"/>
	</g>
	<g id="XMLID_1910_">
		<rect id="XMLID_833_" x="94.7" y="50.4" class="st2" width="0.1" height="13"/>
		<rect id="XMLID_832_" x="100.9" y="59.9" class="st2" width="0.1" height="7.8"/>
		<rect id="XMLID_831_" x="101.9" y="87.8" class="st2" width="0.1" height="7.8"/>
		<rect id="XMLID_830_" x="92.2" y="74.5" class="st2" width="0.1" height="13"/>
		<polygon id="XMLID_1914_" class="st2" points="94.8,50.7 94.3,50.7 94.5,50.3 94.8,50 95,50.3 95.3,50.7 		"/>
		<polygon id="XMLID_1913_" class="st2" points="101,59.9 100.5,59.9 100.7,59.5 101,59.2 101.2,59.5 101.5,59.9 		"/>
		<polygon id="XMLID_1912_" class="st2" points="92.2,74.8 91.7,74.8 92,74.5 92.2,74.1 92.5,74.5 92.7,74.8 		"/>
		<polygon id="XMLID_1911_" class="st2" points="102,87.8 101.5,87.8 101.7,87.5 102,87.1 102.2,87.5 102.5,87.8 		"/>
	</g>
	<g id="XMLID_1901_">
		<rect id="XMLID_829_" x="94.9" y="29.1" class="st2" width="0.1" height="13"/>
		<rect id="XMLID_231_" x="101.1" y="38.5" class="st2" width="0.1" height="7.8"/>
		<rect id="XMLID_827_" x="102.1" y="66.4" class="st2" width="0.1" height="7.8"/>
		<rect id="XMLID_826_" x="92.4" y="53.2" class="st2" width="0.1" height="13"/>
		<polygon id="XMLID_1905_" class="st2" points="94.9,29.3 94.4,29.3 94.7,28.9 94.9,28.6 95.2,28.9 95.4,29.3 		"/>
		<polygon id="XMLID_1904_" class="st2" points="101.1,38.5 100.6,38.5 100.9,38.2 101.1,37.8 101.4,38.2 101.6,38.5 		"/>
		<polygon id="XMLID_1903_" class="st2" points="92.4,53.5 91.9,53.5 92.2,53.1 92.4,52.8 92.7,53.1 92.9,53.5 		"/>
		<polygon id="XMLID_1902_" class="st2" points="102.1,66.5 101.6,66.5 101.9,66.1 102.1,65.8 102.4,66.1 102.6,66.5 		"/>
	</g>
	<g id="XMLID_1892_">
		<rect id="XMLID_825_" x="87.5" y="48.5" class="st2" width="0.1" height="13"/>
		<rect id="XMLID_824_" x="93.7" y="57.9" class="st2" width="0.1" height="7.8"/>
		<rect id="XMLID_823_" x="94.7" y="85.8" class="st2" width="0.1" height="7.8"/>
		<rect id="XMLID_822_" x="85" y="72.6" class="st2" width="0.1" height="13"/>
		<polygon id="XMLID_1896_" class="st2" points="87.6,48.7 87.1,48.7 87.3,48.4 87.6,48 87.8,48.4 88.1,48.7 		"/>
		<polygon id="XMLID_1895_" class="st2" points="93.8,57.9 93.3,57.9 93.5,57.6 93.8,57.2 94,57.6 94.3,57.9 		"/>
		<polygon id="XMLID_1894_" class="st2" points="85.1,72.9 84.6,72.9 84.8,72.5 85.1,72.2 85.3,72.5 85.6,72.9 		"/>
		<polygon id="XMLID_1893_" class="st2" points="94.8,85.9 94.3,85.9 94.5,85.5 94.8,85.2 95,85.5 95.3,85.9 		"/>
	</g>
	<g id="XMLID_1883_">
		<rect id="XMLID_821_" x="145.9" y="36.9" class="st2" width="0.1" height="13"/>
		<rect id="XMLID_820_" x="152.1" y="46.3" class="st2" width="0.1" height="7.8"/>
		<rect id="XMLID_230_" x="153.1" y="74.3" class="st2" width="0.1" height="7.8"/>
		<rect id="XMLID_818_" x="143.4" y="61" class="st2" width="0.1" height="13"/>
		<polygon id="XMLID_1887_" class="st2" points="146,37.1 145.5,37.1 145.7,36.8 146,36.4 146.2,36.8 146.4,37.1 		"/>
		<polygon id="XMLID_1886_" class="st2" points="152.2,46.3 151.7,46.3 151.9,46 152.2,45.6 152.4,46 152.7,46.3 		"/>
		<polygon id="XMLID_1885_" class="st2" points="143.4,61.3 142.9,61.3 143.2,61 143.4,60.6 143.7,61 143.9,61.3 		"/>
		<polygon id="XMLID_1884_" class="st2" points="153.1,74.3 152.7,74.3 152.9,74 153.1,73.6 153.4,74 153.6,74.3 		"/>
	</g>
	<g id="XMLID_1874_">
		<rect id="XMLID_817_" x="100.8" y="57.1" class="st2" width="0.1" height="13"/>
		<rect id="XMLID_816_" x="107" y="66.6" class="st2" width="0.1" height="7.8"/>
		<rect id="XMLID_815_" x="108" y="94.5" class="st2" width="0.1" height="7.8"/>
		<rect id="XMLID_814_" x="98.3" y="81.2" class="st2" width="0.1" height="13"/>
		<polygon id="XMLID_1878_" class="st2" points="100.8,57.4 100.3,57.4 100.6,57 100.8,56.7 101.1,57 101.3,57.4 		"/>
		<polygon id="XMLID_1877_" class="st2" points="107,66.6 106.5,66.6 106.8,66.2 107,65.9 107.3,66.2 107.5,66.6 		"/>
		<polygon id="XMLID_1876_" class="st2" points="98.3,81.5 97.8,81.5 98.1,81.2 98.3,80.8 98.6,81.2 98.8,81.5 		"/>
		<polygon id="XMLID_1875_" class="st2" points="108,94.5 107.5,94.5 107.8,94.2 108,93.8 108.3,94.2 108.5,94.5 		"/>
	</g>
	<g id="XMLID_1865_">
		<rect id="XMLID_813_" x="181.2" y="48.8" class="st2" width="0.1" height="13"/>
		<rect id="XMLID_812_" x="187.4" y="58.3" class="st2" width="0.1" height="7.8"/>
		<rect id="XMLID_811_" x="188.4" y="86.2" class="st2" width="0.1" height="7.8"/>
		<rect id="XMLID_810_" x="178.7" y="72.9" class="st2" width="0.1" height="13"/>
		<polygon id="XMLID_1869_" class="st2" points="181.3,49 180.8,49 181,48.7 181.3,48.3 181.5,48.7 181.7,49 		"/>
		<polygon id="XMLID_1868_" class="st2" points="187.5,58.3 187,58.3 187.2,57.9 187.5,57.6 187.7,57.9 188,58.3 		"/>
		<polygon id="XMLID_1867_" class="st2" points="178.7,73.2 178.2,73.2 178.5,72.9 178.7,72.5 179,72.9 179.2,73.2 		"/>
		<polygon id="XMLID_1866_" class="st2" points="188.4,86.2 188,86.2 188.2,85.9 188.4,85.5 188.7,85.9 188.9,86.2 		"/>
	</g>
	<g id="XMLID_1856_">
		<rect id="XMLID_809_" x="144.1" y="27.1" class="st2" width="0.1" height="13"/>
		<rect id="XMLID_808_" x="150.3" y="36.6" class="st2" width="0.1" height="7.8"/>
		<rect id="XMLID_807_" x="151.3" y="64.5" class="st2" width="0.1" height="7.8"/>
		<rect id="XMLID_806_" x="141.6" y="51.2" class="st2" width="0.1" height="13"/>
		<polygon id="XMLID_1860_" class="st2" points="144.1,27.4 143.6,27.4 143.9,27 144.1,26.7 144.4,27 144.6,27.4 		"/>
		<polygon id="XMLID_1859_" class="st2" points="150.3,36.6 149.8,36.6 150.1,36.2 150.3,35.9 150.6,36.2 150.8,36.6 		"/>
		<polygon id="XMLID_1858_" class="st2" points="141.6,51.5 141.1,51.5 141.4,51.2 141.6,50.8 141.9,51.2 142.1,51.5 		"/>
		<polygon id="XMLID_1857_" class="st2" points="151.3,64.5 150.8,64.5 151.1,64.2 151.3,63.8 151.6,64.2 151.8,64.5 		"/>
	</g>
	<g id="XMLID_1847_">
		<rect id="XMLID_805_" x="77.1" y="41.6" class="st2" width="0.1" height="13"/>
		<rect id="XMLID_804_" x="83.3" y="51.1" class="st2" width="0.1" height="7.8"/>
		<rect id="XMLID_803_" x="84.3" y="79" class="st2" width="0.1" height="7.8"/>
		<rect id="XMLID_802_" x="74.7" y="65.7" class="st2" width="0.1" height="13"/>
		<polygon id="XMLID_1851_" class="st2" points="77.2,41.8 76.7,41.8 76.9,41.5 77.2,41.1 77.4,41.5 77.7,41.8 		"/>
		<polygon id="XMLID_1850_" class="st2" points="83.4,51.1 82.9,51.1 83.2,50.7 83.4,50.4 83.7,50.7 83.9,51.1 		"/>
		<polygon id="XMLID_1849_" class="st2" points="74.7,66 74.2,66 74.4,65.7 74.7,65.3 74.9,65.7 75.2,66 		"/>
		<polygon id="XMLID_1848_" class="st2" points="84.4,79 83.9,79 84.1,78.7 84.4,78.3 84.6,78.7 84.9,79 		"/>
	</g>
	<g id="XMLID_2018_">
		<rect id="XMLID_801_" x="87.9" y="37.5" class="st2" width="0.1" height="13"/>
		<rect id="XMLID_800_" x="94.1" y="47" class="st2" width="0.1" height="7.8"/>
		<rect id="XMLID_799_" x="95.1" y="74.9" class="st2" width="0.1" height="7.8"/>
		<rect id="XMLID_798_" x="85.5" y="61.6" class="st2" width="0.1" height="13"/>
		<polygon id="XMLID_2022_" class="st2" points="88,37.7 87.5,37.7 87.7,37.4 88,37 88.2,37.4 88.5,37.7 		"/>
		<polygon id="XMLID_2021_" class="st2" points="94.2,47 93.7,47 93.9,46.6 94.2,46.3 94.4,46.6 94.7,47 		"/>
		<polygon id="XMLID_2020_" class="st2" points="85.5,61.9 85,61.9 85.2,61.6 85.5,61.2 85.7,61.6 86,61.9 		"/>
		<polygon id="XMLID_2019_" class="st2" points="95.2,74.9 94.7,74.9 94.9,74.6 95.2,74.2 95.4,74.6 95.7,74.9 		"/>
	</g>
	<g id="XMLID_2009_">
		<rect id="XMLID_797_" x="132.2" y="62" class="st2" width="0.1" height="13"/>
		<rect id="XMLID_796_" x="138.4" y="71.5" class="st2" width="0.1" height="7.8"/>
		<rect id="XMLID_795_" x="139.4" y="99.4" class="st2" width="0.1" height="7.8"/>
		<rect id="XMLID_794_" x="129.7" y="86.1" class="st2" width="0.1" height="13"/>
		<polygon id="XMLID_2013_" class="st2" points="132.2,62.2 131.7,62.2 132,61.9 132.2,61.5 132.5,61.9 132.7,62.2 		"/>
		<polygon id="XMLID_2012_" class="st2" points="138.4,71.5 137.9,71.5 138.2,71.1 138.4,70.8 138.7,71.1 138.9,71.5 		"/>
		<polygon id="XMLID_2011_" class="st2" points="129.7,86.4 129.2,86.4 129.5,86.1 129.7,85.7 130,86.1 130.2,86.4 		"/>
		<polygon id="XMLID_2010_" class="st2" points="139.4,99.4 138.9,99.4 139.2,99.1 139.4,98.7 139.7,99.1 139.9,99.4 		"/>
	</g>
	<g id="XMLID_2000_">
		<rect id="XMLID_793_" x="71.8" y="51.2" class="st2" width="0.1" height="13"/>
		<rect id="XMLID_792_" x="78" y="60.7" class="st2" width="0.1" height="7.8"/>
		<rect id="XMLID_791_" x="79" y="88.6" class="st2" width="0.1" height="7.8"/>
		<rect id="XMLID_790_" x="69.3" y="75.3" class="st2" width="0.1" height="13"/>
		<polygon id="XMLID_2004_" class="st2" points="71.8,51.4 71.3,51.4 71.6,51.1 71.8,50.7 72.1,51.1 72.3,51.4 		"/>
		<polygon id="XMLID_2003_" class="st2" points="78,60.7 77.5,60.7 77.8,60.3 78,60 78.3,60.3 78.5,60.7 		"/>
		<polygon id="XMLID_2002_" class="st2" points="69.3,75.6 68.8,75.6 69.1,75.3 69.3,74.9 69.6,75.3 69.8,75.6 		"/>
		<polygon id="XMLID_2001_" class="st2" points="79,88.6 78.5,88.6 78.8,88.3 79,87.9 79.3,88.3 79.5,88.6 		"/>
	</g>
	<g id="XMLID_1991_">
		<rect id="XMLID_789_" x="186.6" y="29.5" class="st2" width="0.1" height="13"/>
		<rect id="XMLID_788_" x="192.9" y="39" class="st2" width="0.1" height="7.8"/>
		<rect id="XMLID_787_" x="193.8" y="66.9" class="st2" width="0.1" height="7.8"/>
		<rect id="XMLID_786_" x="184.2" y="53.6" class="st2" width="0.1" height="13"/>
		<polygon id="XMLID_1995_" class="st2" points="186.7,29.7 186.2,29.7 186.5,29.4 186.7,29 187,29.4 187.2,29.7 		"/>
		<polygon id="XMLID_1994_" class="st2" points="192.9,39 192.4,39 192.7,38.6 192.9,38.3 193.2,38.6 193.4,39 		"/>
		<polygon id="XMLID_1993_" class="st2" points="184.2,53.9 183.7,53.9 183.9,53.6 184.2,53.2 184.4,53.6 184.7,53.9 		"/>
		<polygon id="XMLID_1992_" class="st2" points="193.9,66.9 193.4,66.9 193.7,66.6 193.9,66.2 194.1,66.6 194.4,66.9 		"/>
	</g>
	<g id="XMLID_1982_">
		<rect id="XMLID_785_" x="121" y="44.8" class="st2" width="0.1" height="13"/>
		<rect id="XMLID_784_" x="127.2" y="54.2" class="st2" width="0.1" height="7.8"/>
		<rect id="XMLID_783_" x="128.2" y="82.1" class="st2" width="0.1" height="7.8"/>
		<rect id="XMLID_782_" x="118.5" y="68.9" class="st2" width="0.1" height="13"/>
		<polygon id="XMLID_1986_" class="st2" points="121,45 120.5,45 120.8,44.7 121,44.3 121.3,44.7 121.5,45 		"/>
		<polygon id="XMLID_1985_" class="st2" points="127.2,54.2 126.7,54.2 127,53.9 127.2,53.5 127.5,53.9 127.7,54.2 		"/>
		<polygon id="XMLID_1984_" class="st2" points="118.5,69.2 118,69.2 118.3,68.8 118.5,68.5 118.8,68.8 119,69.2 		"/>
		<polygon id="XMLID_1983_" class="st2" points="128.2,82.2 127.7,82.2 128,81.9 128.2,81.5 128.5,81.9 128.7,82.2 		"/>
	</g>
	<g id="XMLID_1973_">
		<rect id="XMLID_781_" x="157" y="32.6" class="st2" width="0.1" height="13"/>
		<rect id="XMLID_780_" x="163.2" y="42" class="st2" width="0.1" height="7.8"/>
		<rect id="XMLID_643_" x="164.2" y="69.9" class="st2" width="0.1" height="7.8"/>
		<rect id="XMLID_779_" x="154.5" y="56.7" class="st2" width="0.1" height="13"/>
		<polygon id="XMLID_229_" class="st2" points="157.1,32.8 156.6,32.8 156.8,32.5 157.1,32.1 157.3,32.5 157.6,32.8 		"/>
		<polygon id="XMLID_1976_" class="st2" points="163.3,42 162.8,42 163,41.7 163.3,41.3 163.5,41.7 163.8,42 		"/>
		<polygon id="XMLID_1975_" class="st2" points="154.6,57 154.1,57 154.3,56.6 154.6,56.3 154.8,56.6 155.1,57 		"/>
		<polygon id="XMLID_1974_" class="st2" points="164.3,70 163.8,70 164,69.6 164.3,69.3 164.5,69.6 164.8,70 		"/>
	</g>
	<g id="XMLID_1964_">
		<rect id="XMLID_778_" x="176.3" y="56.8" class="st2" width="0.1" height="13"/>
		<rect id="XMLID_777_" x="182.5" y="66.3" class="st2" width="0.1" height="7.8"/>
		<rect id="XMLID_776_" x="183.5" y="94.2" class="st2" width="0.1" height="7.8"/>
		<rect id="XMLID_775_" x="173.8" y="80.9" class="st2" width="0.1" height="13"/>
		<polygon id="XMLID_1968_" class="st2" points="176.3,57 175.8,57 176.1,56.7 176.3,56.3 176.6,56.7 176.8,57 		"/>
		<polygon id="XMLID_1967_" class="st2" points="182.5,66.3 182,66.3 182.3,65.9 182.5,65.6 182.8,65.9 183,66.3 		"/>
		<polygon id="XMLID_1966_" class="st2" points="173.8,81.2 173.3,81.2 173.6,80.9 173.8,80.5 174.1,80.9 174.3,81.2 		"/>
		<polygon id="XMLID_1965_" class="st2" points="183.5,94.2 183,94.2 183.3,93.9 183.5,93.5 183.8,93.9 184,94.2 		"/>
	</g>
	<g id="XMLID_1955_">
		<rect id="XMLID_774_" x="78.9" y="49.5" class="st2" width="0.1" height="13"/>
		<rect id="XMLID_773_" x="85.1" y="59" class="st2" width="0.1" height="7.8"/>
		<rect id="XMLID_772_" x="86.1" y="86.9" class="st2" width="0.1" height="7.8"/>
		<rect id="XMLID_771_" x="76.4" y="73.6" class="st2" width="0.1" height="13"/>
		<polygon id="XMLID_1959_" class="st2" points="78.9,49.7 78.4,49.7 78.7,49.4 78.9,49 79.2,49.4 79.4,49.7 		"/>
		<polygon id="XMLID_1958_" class="st2" points="85.1,59 84.6,59 84.9,58.6 85.1,58.3 85.4,58.6 85.6,59 		"/>
		<polygon id="XMLID_1957_" class="st2" points="76.4,73.9 75.9,73.9 76.2,73.6 76.4,73.2 76.7,73.6 76.9,73.9 		"/>
		<polygon id="XMLID_1956_" class="st2" points="86.1,86.9 85.6,86.9 85.9,86.6 86.1,86.2 86.4,86.6 86.6,86.9 		"/>
	</g>
	<g id="XMLID_1946_">
		<rect id="XMLID_770_" x="95.4" y="29.6" class="st2" width="0.1" height="13"/>
		<rect id="XMLID_769_" x="101.6" y="39" class="st2" width="0.1" height="7.8"/>
		<rect id="XMLID_768_" x="102.6" y="66.9" class="st2" width="0.1" height="7.8"/>
		<rect id="XMLID_767_" x="92.9" y="53.7" class="st2" width="0.1" height="13"/>
		<polygon id="XMLID_1950_" class="st2" points="95.4,29.8 94.9,29.8 95.2,29.4 95.4,29.1 95.7,29.4 95.9,29.8 		"/>
		<polygon id="XMLID_1949_" class="st2" points="101.6,39 101.1,39 101.4,38.6 101.6,38.3 101.9,38.6 102.1,39 		"/>
		<polygon id="XMLID_1948_" class="st2" points="92.9,53.9 92.4,53.9 92.7,53.6 92.9,53.2 93.2,53.6 93.4,53.9 		"/>
		<polygon id="XMLID_1947_" class="st2" points="102.6,67 102.1,67 102.4,66.6 102.6,66.3 102.9,66.6 103.1,67 		"/>
	</g>
	<g id="XMLID_1937_">
		<rect id="XMLID_766_" x="158.3" y="42.7" class="st2" width="0.1" height="13"/>
		<rect id="XMLID_765_" x="164.6" y="52.1" class="st2" width="0.1" height="7.8"/>
		<rect id="XMLID_764_" x="165.5" y="80" class="st2" width="0.1" height="7.8"/>
		<rect id="XMLID_763_" x="155.9" y="66.8" class="st2" width="0.1" height="13"/>
		<polygon id="XMLID_1941_" class="st2" points="158.4,42.9 157.9,42.9 158.2,42.6 158.4,42.2 158.7,42.6 158.9,42.9 		"/>
		<polygon id="XMLID_1940_" class="st2" points="164.6,52.1 164.1,52.1 164.4,51.8 164.6,51.4 164.9,51.8 165.1,52.1 		"/>
		<polygon id="XMLID_1939_" class="st2" points="155.9,67.1 155.4,67.1 155.6,66.7 155.9,66.4 156.1,66.7 156.4,67.1 		"/>
		<polygon id="XMLID_1938_" class="st2" points="165.6,80.1 165.1,80.1 165.4,79.8 165.6,79.4 165.9,79.8 166.1,80.1 		"/>
	</g>
	<g id="XMLID_2108_">
		<rect id="XMLID_762_" x="166.1" y="37.7" class="st2" width="0.1" height="13"/>
		<rect id="XMLID_761_" x="172.3" y="47.1" class="st2" width="0.1" height="7.8"/>
		<rect id="XMLID_760_" x="173.3" y="75" class="st2" width="0.1" height="7.8"/>
		<rect id="XMLID_759_" x="163.6" y="61.8" class="st2" width="0.1" height="13"/>
		<polygon id="XMLID_2112_" class="st2" points="166.1,37.9 165.6,37.9 165.9,37.5 166.1,37.2 166.4,37.5 166.6,37.9 		"/>
		<polygon id="XMLID_2111_" class="st2" points="172.3,47.1 171.8,47.1 172.1,46.8 172.3,46.4 172.6,46.8 172.8,47.1 		"/>
		<polygon id="XMLID_2110_" class="st2" points="163.6,62.1 163.1,62.1 163.4,61.7 163.6,61.4 163.9,61.7 164.1,62.1 		"/>
		<polygon id="XMLID_2109_" class="st2" points="173.3,75.1 172.8,75.1 173.1,74.7 173.3,74.4 173.6,74.7 173.8,75.1 		"/>
	</g>
	<g id="XMLID_2099_">
		<rect id="XMLID_758_" x="148.9" y="61.8" class="st2" width="0.1" height="13"/>
		<rect id="XMLID_757_" x="155.1" y="71.3" class="st2" width="0.1" height="7.8"/>
		<rect id="XMLID_756_" x="156.1" y="99.2" class="st2" width="0.1" height="7.8"/>
		<rect id="XMLID_755_" x="146.5" y="85.9" class="st2" width="0.1" height="13"/>
		<polygon id="XMLID_2103_" class="st2" points="149,62 148.5,62 148.7,61.7 149,61.3 149.2,61.7 149.5,62 		"/>
		<polygon id="XMLID_2102_" class="st2" points="155.2,71.3 154.7,71.3 154.9,70.9 155.2,70.6 155.4,70.9 155.7,71.3 		"/>
		<polygon id="XMLID_2101_" class="st2" points="146.5,86.2 146,86.2 146.2,85.9 146.5,85.5 146.7,85.9 147,86.2 		"/>
		<polygon id="XMLID_2100_" class="st2" points="156.2,99.2 155.7,99.2 155.9,98.9 156.2,98.5 156.4,98.9 156.7,99.2 		"/>
	</g>
	<g id="XMLID_2090_">
		<rect id="XMLID_754_" x="187" y="50.7" class="st2" width="0.1" height="13"/>
		<rect id="XMLID_753_" x="193.3" y="60.1" class="st2" width="0.1" height="7.8"/>
		<rect id="XMLID_752_" x="194.2" y="88" class="st2" width="0.1" height="7.8"/>
		<rect id="XMLID_751_" x="184.6" y="74.8" class="st2" width="0.1" height="13"/>
		<polygon id="XMLID_2094_" class="st2" points="187.1,50.9 186.6,50.9 186.9,50.6 187.1,50.2 187.4,50.6 187.6,50.9 		"/>
		<polygon id="XMLID_2093_" class="st2" points="193.3,60.1 192.8,60.1 193.1,59.8 193.3,59.4 193.6,59.8 193.8,60.1 		"/>
		<polygon id="XMLID_2092_" class="st2" points="184.6,75.1 184.1,75.1 184.3,74.7 184.6,74.4 184.8,74.7 185.1,75.1 		"/>
		<polygon id="XMLID_2091_" class="st2" points="194.3,88.1 193.8,88.1 194.1,87.8 194.3,87.4 194.6,87.8 194.8,88.1 		"/>
	</g>
	<g id="XMLID_2081_">
		<rect id="XMLID_750_" x="86.8" y="31.4" class="st2" width="0.1" height="13"/>
		<rect id="XMLID_749_" x="93" y="40.8" class="st2" width="0.1" height="7.8"/>
		<rect id="XMLID_748_" x="94" y="68.7" class="st2" width="0.1" height="7.8"/>
		<rect id="XMLID_747_" x="84.3" y="55.5" class="st2" width="0.1" height="13"/>
		<polygon id="XMLID_2085_" class="st2" points="86.8,31.6 86.3,31.6 86.6,31.3 86.8,30.9 87.1,31.3 87.3,31.6 		"/>
		<polygon id="XMLID_2084_" class="st2" points="93,40.8 92.5,40.8 92.8,40.5 93,40.1 93.3,40.5 93.5,40.8 		"/>
		<polygon id="XMLID_2083_" class="st2" points="84.3,55.8 83.8,55.8 84.1,55.4 84.3,55.1 84.6,55.4 84.8,55.8 		"/>
		<polygon id="XMLID_2082_" class="st2" points="94,68.8 93.5,68.8 93.8,68.5 94,68.1 94.3,68.5 94.5,68.8 		"/>
	</g>
	<g id="XMLID_2072_">
		<rect id="XMLID_746_" x="177.9" y="43.8" class="st2" width="0.1" height="13"/>
		<rect id="XMLID_745_" x="184.1" y="53.3" class="st2" width="0.1" height="7.8"/>
		<rect id="XMLID_744_" x="185.1" y="81.2" class="st2" width="0.1" height="7.8"/>
		<rect id="XMLID_743_" x="175.4" y="67.9" class="st2" width="0.1" height="13"/>
		<polygon id="XMLID_2076_" class="st2" points="178,44 177.5,44 177.7,43.7 178,43.3 178.2,43.7 178.5,44 		"/>
		<polygon id="XMLID_2075_" class="st2" points="184.2,53.3 183.7,53.3 183.9,52.9 184.2,52.6 184.4,52.9 184.7,53.3 		"/>
		<polygon id="XMLID_2074_" class="st2" points="175.4,68.2 174.9,68.2 175.2,67.9 175.4,67.5 175.7,67.9 175.9,68.2 		"/>
		<polygon id="XMLID_2073_" class="st2" points="185.2,81.2 184.7,81.2 184.9,80.9 185.2,80.5 185.4,80.9 185.7,81.2 		"/>
	</g>
	<g id="XMLID_2063_">
		<rect id="XMLID_742_" x="114.4" y="35.6" class="st2" width="0.1" height="13"/>
		<rect id="XMLID_741_" x="120.6" y="45" class="st2" width="0.1" height="7.8"/>
		<rect id="XMLID_740_" x="121.6" y="72.9" class="st2" width="0.1" height="7.8"/>
		<rect id="XMLID_739_" x="111.9" y="59.7" class="st2" width="0.1" height="13"/>
		<polygon id="XMLID_2067_" class="st2" points="114.4,35.8 113.9,35.8 114.2,35.5 114.4,35.1 114.7,35.5 114.9,35.8 		"/>
		<polygon id="XMLID_2066_" class="st2" points="120.6,45 120.1,45 120.4,44.7 120.6,44.3 120.9,44.7 121.1,45 		"/>
		<polygon id="XMLID_2065_" class="st2" points="111.9,60 111.4,60 111.7,59.6 111.9,59.3 112.2,59.6 112.4,60 		"/>
		<polygon id="XMLID_2064_" class="st2" points="121.6,73 121.1,73 121.4,72.7 121.6,72.3 121.9,72.7 122.1,73 		"/>
	</g>
	<g id="XMLID_2054_">
		<rect id="XMLID_738_" x="141.8" y="57.7" class="st2" width="0.1" height="13"/>
		<rect id="XMLID_737_" x="148" y="67.2" class="st2" width="0.1" height="7.8"/>
		<rect id="XMLID_736_" x="149" y="95.1" class="st2" width="0.1" height="7.8"/>
		<rect id="XMLID_735_" x="139.3" y="81.8" class="st2" width="0.1" height="13"/>
		<polygon id="XMLID_2058_" class="st2" points="141.8,57.9 141.3,57.9 141.6,57.6 141.8,57.2 142.1,57.6 142.3,57.9 		"/>
		<polygon id="XMLID_2057_" class="st2" points="148.1,67.2 147.6,67.2 147.8,66.8 148.1,66.5 148.3,66.8 148.6,67.2 		"/>
		<polygon id="XMLID_2056_" class="st2" points="139.3,82.1 138.8,82.1 139.1,81.8 139.3,81.4 139.6,81.8 139.8,82.1 		"/>
		<polygon id="XMLID_2055_" class="st2" points="149,95.1 148.5,95.1 148.8,94.8 149,94.4 149.3,94.8 149.5,95.1 		"/>
	</g>
	<g id="XMLID_2045_">
		<rect id="XMLID_734_" x="91.5" y="48.2" class="st2" width="0.1" height="13"/>
		<rect id="XMLID_733_" x="97.7" y="57.6" class="st2" width="0.1" height="7.8"/>
		<rect id="XMLID_732_" x="98.7" y="85.5" class="st2" width="0.1" height="7.8"/>
		<rect id="XMLID_731_" x="89" y="72.3" class="st2" width="0.1" height="13"/>
		<polygon id="XMLID_2049_" class="st2" points="91.6,48.4 91.1,48.4 91.3,48.1 91.6,47.7 91.8,48.1 92.1,48.4 		"/>
		<polygon id="XMLID_2048_" class="st2" points="97.8,57.6 97.3,57.6 97.5,57.3 97.8,56.9 98,57.3 98.3,57.6 		"/>
		<polygon id="XMLID_2047_" class="st2" points="89,72.6 88.5,72.6 88.8,72.2 89,71.9 89.3,72.2 89.5,72.6 		"/>
		<polygon id="XMLID_2046_" class="st2" points="98.8,85.6 98.3,85.6 98.5,85.2 98.8,84.9 99,85.2 99.3,85.6 		"/>
	</g>
	<g id="XMLID_2036_">
		<rect id="XMLID_730_" x="120.5" y="25.8" class="st2" width="0.1" height="13"/>
		<rect id="XMLID_729_" x="126.7" y="35.2" class="st2" width="0.1" height="7.8"/>
		<rect id="XMLID_728_" x="127.7" y="63.2" class="st2" width="0.1" height="7.8"/>
		<rect id="XMLID_727_" x="118" y="49.9" class="st2" width="0.1" height="13"/>
		<polygon id="XMLID_2040_" class="st2" points="120.6,26 120.1,26 120.3,25.7 120.6,25.3 120.8,25.7 121.1,26 		"/>
		<polygon id="XMLID_2039_" class="st2" points="126.8,35.3 126.3,35.3 126.5,34.9 126.8,34.5 127,34.9 127.3,35.3 		"/>
		<polygon id="XMLID_2038_" class="st2" points="118.1,50.2 117.6,50.2 117.8,49.9 118.1,49.5 118.3,49.9 118.6,50.2 		"/>
		<polygon id="XMLID_2037_" class="st2" points="127.8,63.2 127.3,63.2 127.5,62.9 127.8,62.5 128,62.9 128.3,63.2 		"/>
	</g>
	<g id="XMLID_2027_">
		<rect id="XMLID_726_" x="164.7" y="39.9" class="st2" width="0.1" height="13"/>
		<rect id="XMLID_725_" x="171" y="49.3" class="st2" width="0.1" height="7.8"/>
		<rect id="XMLID_724_" x="171.9" y="77.2" class="st2" width="0.1" height="7.8"/>
		<rect id="XMLID_723_" x="162.3" y="64" class="st2" width="0.1" height="13"/>
		<polygon id="XMLID_2031_" class="st2" points="164.8,40.1 164.3,40.1 164.6,39.7 164.8,39.4 165.1,39.7 165.3,40.1 		"/>
		<polygon id="XMLID_2030_" class="st2" points="171,49.3 170.5,49.3 170.8,48.9 171,48.6 171.3,48.9 171.5,49.3 		"/>
		<polygon id="XMLID_2029_" class="st2" points="162.3,64.2 161.8,64.2 162,63.9 162.3,63.5 162.5,63.9 162.8,64.2 		"/>
		<polygon id="XMLID_2028_" class="st2" points="172,77.3 171.5,77.3 171.8,76.9 172,76.6 172.3,76.9 172.5,77.3 		"/>
	</g>
	<g id="XMLID_2198_">
		<rect id="XMLID_722_" x="157.3" y="34.8" class="st2" width="0.1" height="13"/>
		<rect id="XMLID_721_" x="163.5" y="44.2" class="st2" width="0.1" height="7.8"/>
		<rect id="XMLID_720_" x="164.5" y="72.1" class="st2" width="0.1" height="7.8"/>
		<rect id="XMLID_719_" x="154.8" y="58.9" class="st2" width="0.1" height="13"/>
		<polygon id="XMLID_2202_" class="st2" points="157.4,35 156.9,35 157.1,34.6 157.4,34.3 157.6,34.6 157.9,35 		"/>
		<polygon id="XMLID_2201_" class="st2" points="163.6,44.2 163.1,44.2 163.3,43.8 163.6,43.5 163.8,43.8 164.1,44.2 		"/>
		<polygon id="XMLID_2200_" class="st2" points="154.9,59.1 154.4,59.1 154.6,58.8 154.9,58.4 155.1,58.8 155.4,59.1 		"/>
		<polygon id="XMLID_2199_" class="st2" points="164.6,72.2 164.1,72.2 164.3,71.8 164.6,71.5 164.8,71.8 165.1,72.2 		"/>
	</g>
	<g id="XMLID_2189_">
		<rect id="XMLID_718_" x="100.7" y="59.1" class="st2" width="0.1" height="13"/>
		<rect id="XMLID_717_" x="106.9" y="68.6" class="st2" width="0.1" height="7.8"/>
		<rect id="XMLID_716_" x="107.9" y="96.5" class="st2" width="0.1" height="7.8"/>
		<rect id="XMLID_715_" x="98.2" y="83.2" class="st2" width="0.1" height="13"/>
		<polygon id="XMLID_2193_" class="st2" points="100.8,59.3 100.3,59.3 100.5,59 100.8,58.6 101,59 101.3,59.3 		"/>
		<polygon id="XMLID_2192_" class="st2" points="107,68.6 106.5,68.6 106.7,68.2 107,67.9 107.2,68.2 107.5,68.6 		"/>
		<polygon id="XMLID_2191_" class="st2" points="98.2,83.5 97.8,83.5 98,83.2 98.2,82.8 98.5,83.2 98.7,83.5 		"/>
		<polygon id="XMLID_2190_" class="st2" points="108,96.5 107.5,96.5 107.7,96.2 108,95.8 108.2,96.2 108.5,96.5 		"/>
	</g>
	<g id="XMLID_2180_">
		<rect id="XMLID_714_" x="155.8" y="53.1" class="st2" width="0.1" height="13"/>
		<rect id="XMLID_713_" x="162" y="62.6" class="st2" width="0.1" height="7.8"/>
		<rect id="XMLID_712_" x="163" y="90.5" class="st2" width="0.1" height="7.8"/>
		<rect id="XMLID_711_" x="153.3" y="77.2" class="st2" width="0.1" height="13"/>
		<polygon id="XMLID_2184_" class="st2" points="155.9,53.3 155.4,53.3 155.6,53 155.9,52.6 156.1,53 156.3,53.3 		"/>
		<polygon id="XMLID_2183_" class="st2" points="162.1,62.6 161.6,62.6 161.8,62.2 162.1,61.9 162.3,62.2 162.6,62.6 		"/>
		<polygon id="XMLID_2182_" class="st2" points="153.3,77.5 152.8,77.5 153.1,77.2 153.3,76.8 153.6,77.2 153.8,77.5 		"/>
		<polygon id="XMLID_2181_" class="st2" points="163.1,90.5 162.6,90.5 162.8,90.2 163.1,89.8 163.3,90.2 163.5,90.5 		"/>
	</g>
	<g id="XMLID_2171_">
		<rect id="XMLID_710_" x="171.8" y="29.4" class="st2" width="0.1" height="13"/>
		<rect id="XMLID_709_" x="178" y="38.9" class="st2" width="0.1" height="7.8"/>
		<rect id="XMLID_689_" x="179" y="66.8" class="st2" width="0.1" height="7.8"/>
		<rect id="XMLID_688_" x="169.3" y="53.5" class="st2" width="0.1" height="13"/>
		<polygon id="XMLID_2175_" class="st2" points="171.9,29.7 171.4,29.7 171.6,29.3 171.9,29 172.1,29.3 172.4,29.7 		"/>
		<polygon id="XMLID_2174_" class="st2" points="178.1,38.9 177.6,38.9 177.8,38.5 178.1,38.2 178.3,38.5 178.6,38.9 		"/>
		<polygon id="XMLID_2173_" class="st2" points="169.4,53.8 168.9,53.8 169.1,53.5 169.4,53.1 169.6,53.5 169.9,53.8 		"/>
		<polygon id="XMLID_2172_" class="st2" points="179.1,66.8 178.6,66.8 178.8,66.5 179.1,66.1 179.3,66.5 179.6,66.8 		"/>
	</g>
	<g id="XMLID_2162_">
		<rect id="XMLID_687_" x="176" y="46.5" class="st2" width="0.1" height="13"/>
		<rect id="XMLID_686_" x="182.2" y="56" class="st2" width="0.1" height="7.8"/>
		<rect id="XMLID_685_" x="183.2" y="83.9" class="st2" width="0.1" height="7.8"/>
		<rect id="XMLID_684_" x="173.6" y="70.6" class="st2" width="0.1" height="13"/>
		<polygon id="XMLID_2166_" class="st2" points="176.1,46.7 175.6,46.7 175.8,46.4 176.1,46 176.3,46.4 176.6,46.7 		"/>
		<polygon id="XMLID_2165_" class="st2" points="182.3,56 181.8,56 182.1,55.6 182.3,55.3 182.6,55.6 182.8,56 		"/>
		<polygon id="XMLID_2164_" class="st2" points="173.6,70.9 173.1,70.9 173.3,70.6 173.6,70.2 173.8,70.6 174.1,70.9 		"/>
		<polygon id="XMLID_2163_" class="st2" points="183.3,83.9 182.8,83.9 183,83.6 183.3,83.2 183.5,83.6 183.8,83.9 		"/>
	</g>
	<g id="XMLID_2153_">
		<rect id="XMLID_683_" x="149" y="36" class="st2" width="0.1" height="13"/>
		<rect id="XMLID_664_" x="155.2" y="45.5" class="st2" width="0.1" height="7.8"/>
		<rect id="XMLID_663_" x="156.2" y="73.4" class="st2" width="0.1" height="7.8"/>
		<rect id="XMLID_662_" x="146.5" y="60.1" class="st2" width="0.1" height="13"/>
		<polygon id="XMLID_2157_" class="st2" points="149,36.3 148.5,36.3 148.8,35.9 149,35.6 149.3,35.9 149.5,36.3 		"/>
		<polygon id="XMLID_2156_" class="st2" points="155.2,45.5 154.7,45.5 155,45.1 155.2,44.8 155.5,45.1 155.7,45.5 		"/>
		<polygon id="XMLID_2155_" class="st2" points="146.5,60.4 146,60.4 146.3,60.1 146.5,59.7 146.8,60.1 147,60.4 		"/>
		<polygon id="XMLID_2154_" class="st2" points="156.2,73.4 155.7,73.4 156,73.1 156.2,72.7 156.5,73.1 156.7,73.4 		"/>
	</g>
	<g id="XMLID_2144_">
		<rect id="XMLID_661_" x="103.8" y="56" class="st2" width="0.1" height="13"/>
		<rect id="XMLID_660_" x="110" y="65.5" class="st2" width="0.1" height="7.8"/>
		<rect id="XMLID_659_" x="111" y="93.4" class="st2" width="0.1" height="7.8"/>
		<rect id="XMLID_658_" x="101.4" y="80.1" class="st2" width="0.1" height="13"/>
		<polygon id="XMLID_2148_" class="st2" points="103.9,56.2 103.4,56.2 103.6,55.9 103.9,55.5 104.1,55.9 104.4,56.2 		"/>
		<polygon id="XMLID_2147_" class="st2" points="110.1,65.5 109.6,65.5 109.8,65.1 110.1,64.8 110.3,65.1 110.6,65.5 		"/>
		<polygon id="XMLID_2146_" class="st2" points="101.4,80.4 100.9,80.4 101.1,80.1 101.4,79.7 101.6,80.1 101.9,80.4 		"/>
		<polygon id="XMLID_2145_" class="st2" points="111.1,93.4 110.6,93.4 110.8,93.1 111.1,92.7 111.3,93.1 111.6,93.4 		"/>
	</g>
	<g id="XMLID_2135_">
		<rect id="XMLID_657_" x="123.5" y="46.2" class="st2" width="0.1" height="13"/>
		<rect id="XMLID_656_" x="129.7" y="55.6" class="st2" width="0.1" height="7.8"/>
		<rect id="XMLID_655_" x="130.7" y="83.5" class="st2" width="0.1" height="7.8"/>
		<rect id="XMLID_654_" x="121.1" y="70.3" class="st2" width="0.1" height="13"/>
		<polygon id="XMLID_2139_" class="st2" points="123.6,46.4 123.1,46.4 123.3,46 123.6,45.7 123.8,46 124.1,46.4 		"/>
		<polygon id="XMLID_2138_" class="st2" points="129.8,55.6 129.3,55.6 129.6,55.2 129.8,54.9 130,55.2 130.3,55.6 		"/>
		<polygon id="XMLID_2137_" class="st2" points="121.1,70.5 120.6,70.5 120.8,70.2 121.1,69.8 121.3,70.2 121.6,70.5 		"/>
		<polygon id="XMLID_2136_" class="st2" points="130.8,83.6 130.3,83.6 130.5,83.2 130.8,82.9 131,83.2 131.3,83.6 		"/>
	</g>
	<g id="XMLID_2126_">
		<rect id="XMLID_653_" x="100.4" y="30.2" class="st2" width="0.1" height="13"/>
		<rect id="XMLID_651_" x="106.6" y="39.7" class="st2" width="0.1" height="7.8"/>
		<rect id="XMLID_650_" x="107.6" y="67.6" class="st2" width="0.1" height="7.8"/>
		<rect id="XMLID_649_" x="97.9" y="54.3" class="st2" width="0.1" height="13"/>
		<polygon id="XMLID_2130_" class="st2" points="100.5,30.4 100,30.4 100.2,30.1 100.5,29.7 100.7,30.1 101,30.4 		"/>
		<polygon id="XMLID_2129_" class="st2" points="106.7,39.7 106.2,39.7 106.4,39.3 106.7,39 106.9,39.3 107.2,39.7 		"/>
		<polygon id="XMLID_2128_" class="st2" points="98,54.6 97.5,54.6 97.7,54.3 98,53.9 98.2,54.3 98.5,54.6 		"/>
		<polygon id="XMLID_2127_" class="st2" points="107.7,67.6 107.2,67.6 107.4,67.3 107.7,66.9 107.9,67.3 108.2,67.6 		"/>
	</g>
	<g id="XMLID_2117_">
		<rect id="XMLID_648_" x="130.2" y="42.8" class="st2" width="0.1" height="13"/>
		<rect id="XMLID_647_" x="136.4" y="52.2" class="st2" width="0.1" height="7.8"/>
		<rect id="XMLID_646_" x="137.4" y="80.2" class="st2" width="0.1" height="7.8"/>
		<rect id="XMLID_644_" x="127.8" y="66.9" class="st2" width="0.1" height="13"/>
		<polygon id="XMLID_2121_" class="st2" points="130.3,43 129.8,43 130,42.7 130.3,42.3 130.5,42.7 130.8,43 		"/>
		<polygon id="XMLID_2120_" class="st2" points="136.5,52.2 136,52.2 136.2,51.9 136.5,51.5 136.7,51.9 137,52.2 		"/>
		<polygon id="XMLID_2119_" class="st2" points="127.8,67.2 127.3,67.2 127.5,66.8 127.8,66.5 128,66.8 128.3,67.2 		"/>
		<polygon id="XMLID_2118_" class="st2" points="137.5,80.2 137,80.2 137.2,79.9 137.5,79.5 137.7,79.9 138,80.2 		"/>
	</g>
</g>
<path id="XMLID_321_" class="st3" d="M110.7,106H88.6c7.5-18.9,10.7-38.6,9.2-59.1h3.7C100.8,66.6,103.8,86.3,110.7,106z"/>
<path id="XMLID_320_" class="st3" d="M114.8,105.6h-7.9c2.7-20.7,3.8-42.3,3.3-64.7h1.3C111.3,62.5,112.4,84,114.8,105.6z"/>
<path id="XMLID_319_" class="st3" d="M92.5,105.6h-7.9c2.7-20.7,3.8-42.3,3.3-64.7h1.3C89,62.5,90.1,84,92.5,105.6z"/>
<g id="XMLID_5_">
	<g id="XMLID_296_">
		<path id="XMLID_961_" class="st4" d="M109.7,38.5c-2,0.7-3.9-0.4-5.7-2.7l1.6-3.3c0.9,2.1,2.9,3,5.7,2.7L109.7,38.5z"/>
		<g id="XMLID_297_">
			<rect id="XMLID_316_" x="109.6" y="41.4" class="st5" width="2.4" height="0.5"/>
			<rect id="XMLID_315_" x="109.6" y="41.3" class="st3" width="2.4" height="0.6"/>
			<path id="XMLID_314_" class="st2" d="M111.8,41.4c0.2,0,0.4-0.1,0.5-0.3c0.6-1.1,0.9-2.3,0.9-4.4c0-2.5-1.2-4.8-1.9-5.8
				c-0.2-0.3-0.8-0.3-1,0c-0.7,1.1-1.9,3.3-1.9,5.8c0,2.1,0.4,3.3,0.9,4.4c0.1,0.2,0.3,0.3,0.5,0.3H111.8z"/>
			<path id="XMLID_311_" class="st4" d="M112.5,40.8h-3.3c0,0.1,0.1,0.2,0.2,0.3c0.1,0.2,0.3,0.3,0.5,0.3h2c0.2,0,0.4-0.1,0.5-0.3
				C112.4,41,112.4,40.9,112.5,40.8z"/>
			<path id="XMLID_308_" class="st4" d="M110.6,41.6c0,0.7,0.2,1.2,0.2,1.2s0.2-0.5,0.2-1.2c0-0.7-0.1-1.2-0.2-1.2
				C110.7,40.3,110.6,40.9,110.6,41.6z"/>
			<path id="XMLID_305_" class="st4" d="M112.6,35.4c0,1-0.8,1.7-1.7,1.7c-1,0-1.7-0.8-1.7-1.7c0-1,0.8-1.7,1.7-1.7
				C111.8,33.6,112.6,34.4,112.6,35.4z"/>
			<path id="XMLID_304_" class="st6" d="M112.2,35.4c0,0.8-0.6,1.4-1.4,1.4c-0.8,0-1.4-0.6-1.4-1.4c0-0.8,0.6-1.4,1.4-1.4
				C111.6,34,112.2,34.6,112.2,35.4z"/>
			<path id="XMLID_301_" class="st4" d="M112.2,32.5c-0.3-0.7-0.6-1.2-0.9-1.6c-0.2-0.3-0.8-0.3-1,0c-0.3,0.4-0.6,0.9-0.9,1.6
				C109.9,32.3,111,32.1,112.2,32.5z"/>
			<path id="XMLID_298_" class="st4" d="M108.4,38.1c0,0.4,0.1,0.8,0.2,1.2c0.6,0.1,1.3,0.2,2.2,0.2c0.7,0,1.4-0.1,2.2-0.2
				c0.1-0.4,0.1-0.8,0.2-1.2C111.1,38.7,109.2,38.3,108.4,38.1z"/>
		</g>
	</g>
	<g id="XMLID_260_">
		<path id="XMLID_293_" class="st4" d="M89.7,38.5c2,0.7,3.9-0.4,5.7-2.7l-1.6-3.3c-0.9,2.1-2.9,3-5.7,2.7L89.7,38.5z"/>
		<g id="XMLID_261_">
			<rect id="XMLID_292_" x="87.4" y="41.5" class="st5" width="2.4" height="0.5"/>
			<rect id="XMLID_291_" x="87.4" y="41.4" class="st3" width="2.4" height="0.6"/>
			<path id="XMLID_290_" class="st2" d="M87.6,41.5c-0.2,0-0.4-0.1-0.5-0.3c-0.6-1.1-0.9-2.3-0.9-4.4c0-2.5,1.2-4.8,1.9-5.8
				c0.2-0.3,0.8-0.3,1,0c0.7,1.1,1.9,3.3,1.9,5.8c0,2.1-0.4,3.3-0.9,4.4c-0.1,0.2-0.3,0.3-0.5,0.3H87.6z"/>
			<path id="XMLID_287_" class="st4" d="M86.9,40.9h3.3c0,0.1-0.1,0.2-0.2,0.3c-0.1,0.2-0.3,0.3-0.5,0.3h-2c-0.2,0-0.4-0.1-0.5-0.3
				C87,41.1,87,41,86.9,40.9z"/>
			<path id="XMLID_284_" class="st4" d="M88.8,41.6c0,0.7-0.2,1.2-0.2,1.2s-0.2-0.5-0.2-1.2c0-0.7,0.1-1.2,0.2-1.2
				C88.7,40.4,88.8,41,88.8,41.6z"/>
			<path id="XMLID_278_" class="st4" d="M86.9,35.4c0,1,0.8,1.7,1.7,1.7c1,0,1.7-0.8,1.7-1.7c0-1-0.8-1.7-1.7-1.7
				C87.6,33.7,86.9,34.5,86.9,35.4z"/>
			<path id="XMLID_277_" class="st6" d="M87.2,35.4c0,0.8,0.6,1.4,1.4,1.4c0.8,0,1.4-0.6,1.4-1.4c0-0.8-0.6-1.4-1.4-1.4
				C87.8,34.1,87.2,34.7,87.2,35.4z"/>
			<path id="XMLID_270_" class="st4" d="M87.2,32.6c0.3-0.7,0.6-1.2,0.9-1.6c0.2-0.3,0.8-0.3,1,0c0.3,0.4,0.6,0.9,0.9,1.6
				C89.5,32.4,88.4,32.2,87.2,32.6z"/>
			<path id="XMLID_262_" class="st4" d="M91,38.2c0,0.4-0.1,0.8-0.2,1.2c-0.6,0.1-1.3,0.2-2.2,0.2c-0.7,0-1.4-0.1-2.2-0.2
				c-0.1-0.4-0.1-0.8-0.2-1.2C88.3,38.7,90.2,38.4,91,38.2z"/>
		</g>
	</g>
	<rect id="XMLID_900_" x="96" y="44.8" class="st5" width="7.5" height="1.7"/>
	<rect id="XMLID_899_" x="96" y="44.5" class="st3" width="7.5" height="2"/>
	<path id="XMLID_898_" class="st2" d="M102.8,44.8c0.7,0,1.4-0.4,1.7-0.9c1.8-3.4,2.9-7.2,2.9-13.6c0-8-3.8-14.9-6.1-18.2
		c-0.7-1.1-2.4-1.1-3.1,0c-2.2,3.3-6.1,10.2-6.1,18.2c0,6.5,1.1,10.2,2.9,13.6c0.3,0.6,1,0.9,1.7,0.9H102.8z"/>
	<path id="XMLID_893_" class="st4" d="M105,42.9H94.5c0.2,0.3,0.3,0.6,0.5,1c0.3,0.6,1,0.9,1.7,0.9h6.2c0.7,0,1.4-0.4,1.7-0.9
		C104.7,43.5,104.8,43.2,105,42.9z"/>
	<path id="XMLID_840_" class="st4" d="M99,45.2c0,2.1,0.7,3.8,0.7,3.8s0.7-1.7,0.7-3.8c0-2.1-0.3-3.8-0.7-3.8
		C99.4,41.5,99,43.2,99,45.2z"/>
	<path id="XMLID_839_" class="st4" d="M105.2,25.9c0,3-2.4,5.4-5.4,5.4c-3,0-5.4-2.4-5.4-5.4c0-3,2.4-5.4,5.4-5.4
		C102.7,20.5,105.2,23,105.2,25.9z"/>
	<path id="XMLID_838_" class="st6" d="M104,25.9c0,2.4-1.9,4.3-4.3,4.3c-2.4,0-4.3-1.9-4.3-4.3c0-2.4,1.9-4.3,4.3-4.3
		C102.1,21.7,104,23.6,104,25.9z"/>
	<path id="XMLID_828_" class="st4" d="M104.1,16.9c-1-2-2-3.7-2.8-4.9c-0.7-1.1-2.4-1.1-3.1,0c-0.8,1.2-1.8,2.9-2.8,4.9
		C97,16.4,100.4,15.7,104.1,16.9z"/>
	<path id="XMLID_819_" class="st4" d="M92.3,34.4c0.1,1.4,0.3,2.6,0.6,3.8c1.7,0.4,4.1,0.7,6.9,0.7c2.1,0,4.4-0.2,6.9-0.7
		c0.3-1.1,0.5-2.4,0.6-3.8C100.6,36.2,94.8,35.1,92.3,34.4z"/>
</g>
<line id="XMLID_402_" class="st7" x1="17.8" y1="134.9" x2="17.8" y2="180.5"/>
</svg>
