<?xml version="1.0" encoding="utf-8"?>
<!-- Generator: Adobe Illustrator 25.2.2, SVG Export Plug-In . SVG Version: 6.00 Build 0)  -->
<svg version="1.1" id="Layer_1" xmlns="http://www.w3.org/2000/svg" xmlns:xlink="http://www.w3.org/1999/xlink" x="0px" y="0px"
	 viewBox="0 0 32 32" style="enable-background:new 0 0 32 32;" xml:space="preserve">
<style type="text/css">
	.st0{fill:#FEF2F2;}
	.st1{fill:#F87171;}
	.st2{fill:#F87171;stroke:#474747;stroke-width:15;stroke-linecap:round;stroke-linejoin:round;stroke-miterlimit:10;}
</style>
<g>
	<g>
		<circle class="st0" cx="16" cy="16" r="16"/>
	</g>
	<g>
		<g>
			<path class="st1" d="M10.9,13.7c-1.6,0-2.9-1.3-2.9-2.9c0-1.6,1.3-2.9,2.9-2.9c1.6,0,2.9,1.3,2.9,2.9
				C13.8,12.4,12.5,13.7,10.9,13.7z M10.9,8.7c-1.2,0-2.1,0.9-2.1,2.1c0,1.2,0.9,2.1,2.1,2.1c1.2,0,2.1-0.9,2.1-2.1
				C13,9.6,12,8.7,10.9,8.7z"/>
			<path class="st1" d="M5.9,22.1C5.8,22.1,5.8,22.1,5.9,22.1c-0.3,0-0.4-0.3-0.4-0.5l0.9-5.3c0.3-1.5,0.9-2.8,1.9-4
				c0.1-0.2,0.4-0.2,0.6,0c0.2,0.1,0.2,0.4,0,0.6c-0.9,1-1.5,2.2-1.7,3.5l-0.9,5.3C6.2,22,6.1,22.1,5.9,22.1z"/>
			<path class="st1" d="M27,21.8h-7.7c-0.1,0-0.2-0.2-0.2-0.4c0-0.2,0.1-0.4,0.2-0.4H27c0.1,0,0.2,0.2,0.2,0.4
				C27.2,21.6,27.1,21.8,27,21.8z"/>
			<path class="st1" d="M20.1,19.8C20,19.8,20,19.8,20.1,19.8c-0.3,0-0.4-0.3-0.4-0.5l1.8-10.5c0-0.2,0.3-0.4,0.5-0.3
				c0.2,0,0.4,0.3,0.3,0.5l-1.8,10.5C20.4,19.6,20.2,19.8,20.1,19.8z"/>
			<path class="st1" d="M22.7,21.8c-0.2,0-0.4-0.2-0.4-0.4v-3.8c0-0.7-0.2-1.4-0.7-1.9l-0.9-1c-0.1-0.2-0.1-0.4,0.1-0.6
				c0.2-0.1,0.4-0.1,0.6,0.1l0.9,1c0.6,0.7,0.9,1.5,0.9,2.4v3.8C23.1,21.6,22.9,21.8,22.7,21.8z"/>
			<path class="st2" d="M18.9,21.4"/>
			<path class="st2" d="M25.2,21.4"/>
		</g>
		<path class="st1" d="M17.3,21.7c0,0-0.1,0-0.1,0l-4.7-0.4c-0.5,0-0.9-0.4-1.1-0.8l-1.4-3.6c-0.1-0.2,0-0.4,0.2-0.5
			c0.2-0.1,0.4,0,0.5,0.2l1.4,3.6c0.1,0.2,0.2,0.3,0.4,0.3l4.7,0.4c0.2,0,0.3,0,0.4-0.2c0.1-0.1,0.2-0.3,0.2-0.4
			c0-0.3-0.2-0.6-0.5-0.6l-3.7-0.4c-0.2,0-0.3-0.1-0.3-0.3l-1.7-4.6c-0.1-0.2,0-0.4,0.2-0.5c0.2-0.1,0.4,0,0.5,0.2l1.6,4.3l3.5,0.3
			c0.7,0.1,1.3,0.7,1.3,1.4c0,0.4-0.2,0.8-0.5,1C18,21.5,17.6,21.7,17.3,21.7z"/>
	</g>
</g>
</svg>
