<?xml version="1.0" encoding="utf-8"?>
<!-- Generator: Adobe Illustrator 25.2.2, SVG Export Plug-In . SVG Version: 6.00 Build 0)  -->
<svg version="1.1" xmlns="http://www.w3.org/2000/svg" xmlns:xlink="http://www.w3.org/1999/xlink" x="0px" y="0px"
	 viewBox="0 0 815.9 815.9" style="enable-background:new 0 0 815.9 815.9;" xml:space="preserve">
<style type="text/css">
	.st0{fill:#FFFFFF;}
	.st1{fill:#D1D4CD;}
	.st2{fill:#F7DEBF;}
	.st3{fill:url(#_x3C_Effect_x3E__1_);}
	.st4{fill:url(#_x3C_Effect_x3E__2_);}
	.st5{fill:url(#_x3C_Effect_x3E__3_);}
	.st6{opacity:0.1;fill:url(#_x3C_Effect_x3E__10_);}
	.st7{opacity:0.1;fill:url(#_x3C_Effect_x3E__11_);}
	.st8{opacity:0.1;fill:url(#_x3C_Effect_x3E__15_);}
	.st9{opacity:0.3;fill:url(#_x3C_Effect_x3E__16_);}
	.st10{opacity:0.3;fill:url(#_x3C_Effect_x3E__17_);}
	.st11{opacity:0.3;fill:url(#_x3C_Effect_x3E__18_);}
	.st12{fill:url(#_x3C_Effect_x3E__24_);}
	.st13{fill:url(#_x3C_Effect_x3E__25_);}
	.st14{fill:url(#_x3C_Effect_x3E__26_);}
	.st15{opacity:0.1;fill:url(#_x3C_Effect_x3E__27_);}
	.st16{opacity:0.1;fill:url(#_x3C_Effect_x3E__28_);}
	.st17{opacity:0.1;fill:url(#_x3C_Effect_x3E__29_);}
</style>
<g id="template">
</g>
<g id="pattern">
	<g>
		<path class="st0" d="M649.1,408.5c-20.9-69.7-66.7-132-133.4-172.6c57.4,36,95.5,99.9,95.5,172.6c0,72.7-38.1,136.6-95.5,172.6
			c-2.1,1.3-4.2,2.6-6.3,3.8c-1.6,0.9-3.2,1.9-4.8,2.7c-68.9,38.2-146.5,46.9-217.9,30.2C207.4,599.1,135.7,549.1,91.9,473
			c-12-20.8-21.3-42.5-28-64.6c-33.4-110.3-1.3-230.9,82.4-310.1C58,172.7,2,284.1,2,408.5c0,124.4,56,235.7,144.3,310.1
			c35.7,30.1,76.6,54.1,121.2,70.5c110.9,33.9,232.4,1.5,311.8-83c15.8-16.8,30-35.7,42-56.6C665.1,573.5,672.6,486.4,649.1,408.5z"
			/>
		<path class="st1" d="M806.9,338.4c-26.4-112.6-115.1-201.2-227.7-227.5c-22.5-5.3-45.8-8-69.9-8c-87.8,0-167,37-222.7,96.3
			c-51.4,54.6-82.9,128.3-82.9,209.3c0-112.5,91.2-203.7,203.7-203.7c35.1,0,68.2,8.9,97.1,24.6c1.6,0.9,3.3,1.8,4.8,2.7
			c2.1,1.2,4.2,2.5,6.3,3.8c66.7,40.6,112.5,102.9,133.4,172.6c23.5,78,16,165-27.9,241c-12,20.9-26.2,39.7-42,56.6
			c-79.3,84.6-200.9,117-311.8,83c43.6,16.1,90.8,24.9,140,24.9c200,0,366.2-144.9,399.4-335.4c4-22.8,6-46.2,6-70.1
			S810.8,361.1,806.9,338.4z"/>
		<path class="st2" d="M407.5,3c-49.2,0-96.4,8.8-140,24.9c-44.6,16.4-85.5,40.4-121.2,70.5C62.6,177.5,30.5,298.1,63.9,408.5
			c6.7,22.1,16,43.8,28,64.6c43.9,76,115.6,126.1,194.8,144.7c71.4,16.8,149,8.1,217.9-30.2c-28.9,15.7-62,24.6-97.1,24.6
			c-112.5,0-203.7-91.2-203.7-203.7c0-81,31.5-154.6,82.9-209.3c55.7-59.3,134.9-96.3,222.7-96.3c24,0,47.4,2.8,69.9,8
			c112.6,26.3,201.3,115,227.7,227.5C773.7,147.9,607.5,3,407.5,3z"/>
		
			<linearGradient id="_x3C_Effect_x3E__1_" gradientUnits="userSpaceOnUse" x1="572.1796" y1="713.3099" x2="50.6978" y2="191.8281">
			<stop  offset="0" style="stop-color:#000000"/>
			<stop  offset="1" style="stop-color:#FFFFFF"/>
		</linearGradient>
		<path id="_x3C_Effect_x3E__23_" class="st3" d="M621.2,649.5c-12,20.9-26.2,39.7-42,56.6c-79.3,84.6-200.9,117-311.8,83
			c-44.6-16.4-85.5-40.4-121.2-70.5C58,644.2,2,532.9,2,408.5C2,284.1,58,172.7,146.3,98.4C62.6,177.5,30.5,298.1,63.9,408.5
			c6.7,22.1,16,43.8,28,64.6c43.9,76,115.6,126.1,194.8,144.7c71.4,16.8,149,8.1,217.9-30.2c1.6-0.9,3.3-1.8,4.8-2.7
			c2.1-1.2,4.2-2.5,6.3-3.8c57.4-36,95.5-99.9,95.5-172.6c0-72.7-38.1-136.6-95.5-172.6c66.7,40.6,112.5,102.9,133.4,172.6
			C672.6,486.4,665.1,573.5,621.2,649.5z"/>
		
			<linearGradient id="_x3C_Effect_x3E__2_" gradientUnits="userSpaceOnUse" x1="315.7546" y1="167.2778" x2="645.8775" y2="739.0675">
			<stop  offset="0" style="stop-color:#000000"/>
			<stop  offset="1" style="stop-color:#FFFFFF"/>
		</linearGradient>
		<path id="_x3C_Effect_x3E__22_" class="st4" d="M812.9,408.5c0,23.9-2.1,47.3-6,70.1c-33.2,190.5-199.4,335.4-399.4,335.4
			c-49.2,0-96.4-8.8-140-24.9c110.9,33.9,232.4,1.5,311.8-83c15.8-16.8,30-35.7,42-56.6c43.9-76,51.4-163.1,27.9-241
			c-20.9-69.7-66.7-132-133.4-172.6c-2.1-1.3-4.2-2.6-6.3-3.8c-1.6-0.9-3.2-1.9-4.8-2.7c-28.9-15.7-62-24.6-97.1-24.6
			c-112.5,0-203.7,91.2-203.7,203.7c0-81,31.5-154.6,82.9-209.3c55.7-59.3,134.9-96.3,222.7-96.3c24,0,47.4,2.8,69.9,8
			c112.6,26.3,201.3,115,227.7,227.5C810.8,361.1,812.9,384.5,812.9,408.5z"/>
		
			<linearGradient id="_x3C_Effect_x3E__3_" gradientUnits="userSpaceOnUse" x1="244.1489" y1="608.3073" x2="574.2756" y2="36.5111">
			<stop  offset="0" style="stop-color:#000000"/>
			<stop  offset="1" style="stop-color:#FFFFFF"/>
		</linearGradient>
		<path id="_x3C_Effect_x3E__21_" class="st5" d="M806.9,338.4c-26.4-112.6-115.1-201.2-227.7-227.5c-22.5-5.3-45.8-8-69.9-8
			c-87.8,0-167,37-222.7,96.3c-51.4,54.6-82.9,128.3-82.9,209.3c0,112.5,91.2,203.7,203.7,203.7c35.1,0,68.2-8.9,97.1-24.6
			c-68.9,38.2-146.5,46.9-217.9,30.2C207.4,599.1,135.7,549.1,91.9,473c-12-20.8-21.3-42.5-28-64.6
			c-33.4-110.3-1.3-230.9,82.4-310.1c35.7-30.1,76.6-54.1,121.2-70.5C311.1,11.8,358.2,3,407.5,3C607.5,3,773.7,147.9,806.9,338.4z"
			/>
		
			<linearGradient id="_x3C_Effect_x3E__10_" gradientUnits="userSpaceOnUse" x1="572.1796" y1="713.3099" x2="50.6978" y2="191.8281">
			<stop  offset="0" style="stop-color:#000000"/>
			<stop  offset="1" style="stop-color:#FFFFFF"/>
		</linearGradient>
		<path id="_x3C_Effect_x3E__20_" class="st6" d="M621.2,649.5c-12,20.9-26.2,39.7-42,56.6c-79.3,84.6-200.9,117-311.8,83
			c-44.6-16.4-85.5-40.4-121.2-70.5C58,644.2,2,532.9,2,408.5C2,284.1,58,172.7,146.3,98.4C62.6,177.5,30.5,298.1,63.9,408.5
			c6.7,22.1,16,43.8,28,64.6c43.9,76,115.6,126.1,194.8,144.7c71.4,16.8,149,8.1,217.9-30.2c1.6-0.9,3.3-1.8,4.8-2.7
			c2.1-1.2,4.2-2.5,6.3-3.8c57.4-36,95.5-99.9,95.5-172.6c0-72.7-38.1-136.6-95.5-172.6c66.7,40.6,112.5,102.9,133.4,172.6
			C672.6,486.4,665.1,573.5,621.2,649.5z"/>
		
			<linearGradient id="_x3C_Effect_x3E__11_" gradientUnits="userSpaceOnUse" x1="315.7546" y1="167.2778" x2="645.8775" y2="739.0675">
			<stop  offset="0" style="stop-color:#000000"/>
			<stop  offset="1" style="stop-color:#FFFFFF"/>
		</linearGradient>
		<path id="_x3C_Effect_x3E__19_" class="st7" d="M812.9,408.5c0,23.9-2.1,47.3-6,70.1c-33.2,190.5-199.4,335.4-399.4,335.4
			c-49.2,0-96.4-8.8-140-24.9c110.9,33.9,232.4,1.5,311.8-83c15.8-16.8,30-35.7,42-56.6c43.9-76,51.4-163.1,27.9-241
			c-20.9-69.7-66.7-132-133.4-172.6c-2.1-1.3-4.2-2.6-6.3-3.8c-1.6-0.9-3.2-1.9-4.8-2.7c-28.9-15.7-62-24.6-97.1-24.6
			c-112.5,0-203.7,91.2-203.7,203.7c0-81,31.5-154.6,82.9-209.3c55.7-59.3,134.9-96.3,222.7-96.3c24,0,47.4,2.8,69.9,8
			c112.6,26.3,201.3,115,227.7,227.5C810.8,361.1,812.9,384.5,812.9,408.5z"/>
		
			<linearGradient id="_x3C_Effect_x3E__15_" gradientUnits="userSpaceOnUse" x1="244.1489" y1="608.3073" x2="574.2756" y2="36.5111">
			<stop  offset="0" style="stop-color:#000000"/>
			<stop  offset="1" style="stop-color:#FFFFFF"/>
		</linearGradient>
		<path id="_x3C_Effect_x3E__14_" class="st8" d="M806.9,338.4c-26.4-112.6-115.1-201.2-227.7-227.5c-22.5-5.3-45.8-8-69.9-8
			c-87.8,0-167,37-222.7,96.3c-51.4,54.6-82.9,128.3-82.9,209.3c0,112.5,91.2,203.7,203.7,203.7c35.1,0,68.2-8.9,97.1-24.6
			c-68.9,38.2-146.5,46.9-217.9,30.2C207.4,599.1,135.7,549.1,91.9,473c-12-20.8-21.3-42.5-28-64.6
			c-33.4-110.3-1.3-230.9,82.4-310.1c35.7-30.1,76.6-54.1,121.2-70.5C311.1,11.8,358.2,3,407.5,3C607.5,3,773.7,147.9,806.9,338.4z"
			/>
		
			<linearGradient id="_x3C_Effect_x3E__16_" gradientUnits="userSpaceOnUse" x1="203.9495" y1="250.7338" x2="809.169" y2="250.7338">
			<stop  offset="0" style="stop-color:#000000"/>
			<stop  offset="1" style="stop-color:#FFFFFF"/>
		</linearGradient>
		<path id="_x3C_Effect_x3E_" class="st9" d="M809.2,353.2c-25.4-119.8-131.7-209.6-259.1-209.6c-65.5,0-125.5,23.8-171.7,63.2
			c-95.6,13.6-169.8,93.6-174.5,191.8c2.4-77.1,33.4-147,82.7-199.5c55.7-59.3,134.9-96.3,222.7-96.3c24,0,47.4,2.8,69.9,8
			c112.6,26.3,201.3,115,227.7,227.5C807.7,343.3,808.5,348.2,809.2,353.2z"/>
		
			<linearGradient id="_x3C_Effect_x3E__17_" gradientUnits="userSpaceOnUse" x1="464.7216" y1="627.4381" x2="40.8644" y2="203.5809">
			<stop  offset="0" style="stop-color:#000000"/>
			<stop  offset="1" style="stop-color:#FFFFFF"/>
		</linearGradient>
		<path id="_x3C_Effect_x3E__7_" class="st10" d="M504.6,587.6c-68.9,38.2-146.5,46.9-217.9,30.2C207.4,599.1,135.7,549.1,91.9,473
			c-12-20.8-21.3-42.5-28-64.6c-33.4-110.3-1.3-230.9,82.4-310.1c4.1-3.5,8.3-6.8,12.6-10.1c-91.1,81.8-115.7,218.9-52,329.2
			c32.8,56.7,83.4,96.8,140.6,117.1c37.3,47.4,95.2,77.7,160.1,77.7C442.6,612.2,475.7,603.3,504.6,587.6z"/>
		
			<linearGradient id="_x3C_Effect_x3E__18_" gradientUnits="userSpaceOnUse" x1="342.1004" y1="834.7009" x2="644.8106" y2="310.3914">
			<stop  offset="0" style="stop-color:#FFFFFF"/>
			<stop  offset="1" style="stop-color:#000000"/>
		</linearGradient>
		<path id="_x3C_Effect_x3E__8_" class="st11" d="M621.2,649.5c-12,20.9-26.2,39.7-42,56.6c-79.3,84.6-200.9,117-311.8,83
			c-4.6-1.7-9.1-3.4-13.6-5.3c116.5,38.3,247.9-8.9,311.7-119.4c32.8-56.7,42.1-120.5,31.1-180.2c9.4-23.4,14.5-49,14.5-75.7
			c0-72.7-38.1-136.6-95.5-172.6c66.7,40.6,112.5,102.9,133.4,172.6C672.6,486.4,665.1,573.5,621.2,649.5z"/>
		
			<linearGradient id="_x3C_Effect_x3E__24_" gradientUnits="userSpaceOnUse" x1="50.8607" y1="231.9111" x2="794.8251" y2="231.9111">
			<stop  offset="0" style="stop-color:#000000"/>
			<stop  offset="0.1205" style="stop-color:#040404"/>
			<stop  offset="0.2454" style="stop-color:#111111"/>
			<stop  offset="0.3724" style="stop-color:#252525"/>
			<stop  offset="0.5008" style="stop-color:#434343"/>
			<stop  offset="0.6304" style="stop-color:#686868"/>
			<stop  offset="0.761" style="stop-color:#969696"/>
			<stop  offset="0.8898" style="stop-color:#CBCBCB"/>
			<stop  offset="1" style="stop-color:#FFFFFF"/>
		</linearGradient>
		<path id="_x3C_Effect_x3E__9_" class="st12" d="M794.8,288.3C745.1,144.8,608.7,41.7,448.2,41.7c-202.6,0-366.7,164.2-366.7,366.7
			c0,17.8,1.3,35.2,3.7,52.4c-8.9-17-16-34.6-21.4-52.4c-33.4-110.3-1.3-230.9,82.4-310.1c35.7-30.1,76.6-54.1,121.2-70.5
			C311.1,11.8,358.2,3,407.5,3C589.6,3,743.6,123.1,794.8,288.3z"/>
		
			<linearGradient id="_x3C_Effect_x3E__25_" gradientUnits="userSpaceOnUse" x1="738.662" y1="187.8986" x2="366.7698" y2="832.0348">
			<stop  offset="0" style="stop-color:#000000"/>
			<stop  offset="0.1205" style="stop-color:#040404"/>
			<stop  offset="0.2454" style="stop-color:#111111"/>
			<stop  offset="0.3724" style="stop-color:#252525"/>
			<stop  offset="0.5008" style="stop-color:#434343"/>
			<stop  offset="0.6304" style="stop-color:#686868"/>
			<stop  offset="0.761" style="stop-color:#969696"/>
			<stop  offset="0.8898" style="stop-color:#CBCBCB"/>
			<stop  offset="1" style="stop-color:#FFFFFF"/>
		</linearGradient>
		<path id="_x3C_Effect_x3E__12_" class="st13" d="M812.9,408.5c0,23.9-2.1,47.3-6,70.1c-33.2,190.5-199.4,335.4-399.4,335.4
			c-30.6,0-60.4-3.4-89.1-9.8c149,28.4,306.2-38.1,386.3-177c101.3-175.4,41.2-399.7-134.2-501c-15.4-8.9-31.2-16.5-47.3-23
			c19.2,0.9,37.9,3.5,56,7.7c112.6,26.3,201.3,115,227.7,227.5C810.8,361.1,812.9,384.5,812.9,408.5z"/>
		
			<linearGradient id="_x3C_Effect_x3E__26_" gradientUnits="userSpaceOnUse" x1="61.254" y1="161.9899" x2="432.8243" y2="805.5685">
			<stop  offset="0" style="stop-color:#FFFFFF"/>
			<stop  offset="0.1102" style="stop-color:#CBCBCB"/>
			<stop  offset="0.239" style="stop-color:#969696"/>
			<stop  offset="0.3696" style="stop-color:#686868"/>
			<stop  offset="0.4992" style="stop-color:#434343"/>
			<stop  offset="0.6276" style="stop-color:#252525"/>
			<stop  offset="0.7546" style="stop-color:#111111"/>
			<stop  offset="0.8795" style="stop-color:#040404"/>
			<stop  offset="1" style="stop-color:#000000"/>
		</linearGradient>
		<path id="_x3C_Effect_x3E__13_" class="st14" d="M613.9,661.4c-10.3,16.2-22,31.1-34.7,44.7c-79.3,84.6-200.9,117-311.8,83
			c-44.6-16.4-85.5-40.4-121.2-70.5C58,644.2,2,532.9,2,408.5C2,303,42.3,207,108.2,134.9C10.1,249.7-10.3,418.3,69.5,556.5
			C170.7,732,395,792,570.5,690.8C585.9,681.9,600.4,672,613.9,661.4z"/>
		
			<linearGradient id="_x3C_Effect_x3E__27_" gradientUnits="userSpaceOnUse" x1="284.6745" y1="98.354" x2="284.6745" y2="630.6668">
			<stop  offset="0" style="stop-color:#FFFFFF"/>
			<stop  offset="7.380247e-03" style="stop-color:#F6F6F6"/>
			<stop  offset="4.767627e-02" style="stop-color:#C8C8C8"/>
			<stop  offset="9.308982e-02" style="stop-color:#9D9D9D"/>
			<stop  offset="0.1419" style="stop-color:#777777"/>
			<stop  offset="0.195" style="stop-color:#575757"/>
			<stop  offset="0.2537" style="stop-color:#3B3B3B"/>
			<stop  offset="0.32" style="stop-color:#252525"/>
			<stop  offset="0.3974" style="stop-color:#141414"/>
			<stop  offset="0.4931" style="stop-color:#090909"/>
			<stop  offset="0.6274" style="stop-color:#020202"/>
			<stop  offset="1" style="stop-color:#000000"/>
		</linearGradient>
		<path id="_x3C_Effect_x3E__4_" class="st15" d="M515.7,581.1c-2.1,1.3-4.2,2.6-6.3,3.8c-1.6,0.9-3.2,1.9-4.8,2.7
			c-68.9,38.2-146.5,46.9-217.9,30.2C207.4,599.1,135.7,549.1,91.9,473c-12-20.8-21.3-42.5-28-64.6
			c-33.4-110.3-1.3-230.9,82.4-310.1c-9.3,7.8-18.2,16.1-26.7,24.7C28.4,226.5,16.1,382.4,98.7,500.3
			c96.8,138.3,287.4,171.9,425.7,75.1c0.5-0.4,1.1-0.8,1.6-1.2C522.6,576.6,519.2,578.9,515.7,581.1z"/>
		
			<linearGradient id="_x3C_Effect_x3E__28_" gradientUnits="userSpaceOnUse" x1="806.887" y1="259.0422" x2="203.3198" y2="259.0422">
			<stop  offset="0" style="stop-color:#FFFFFF"/>
			<stop  offset="7.380247e-03" style="stop-color:#F6F6F6"/>
			<stop  offset="4.767627e-02" style="stop-color:#C8C8C8"/>
			<stop  offset="9.308982e-02" style="stop-color:#9D9D9D"/>
			<stop  offset="0.1419" style="stop-color:#777777"/>
			<stop  offset="0.195" style="stop-color:#575757"/>
			<stop  offset="0.2537" style="stop-color:#3B3B3B"/>
			<stop  offset="0.32" style="stop-color:#252525"/>
			<stop  offset="0.3974" style="stop-color:#141414"/>
			<stop  offset="0.4931" style="stop-color:#090909"/>
			<stop  offset="0.6274" style="stop-color:#020202"/>
			<stop  offset="1" style="stop-color:#000000"/>
		</linearGradient>
		<path id="_x3C_Effect_x3E__6_" class="st16" d="M799.3,303.8C799.3,303.8,799.3,303.8,799.3,303.8C763.1,194,667,113.4,552.6,97
			c-22.8-3.3-46.3-4-70.3-1.9c-87.4,7.6-163.1,51.4-213.4,115.4c-46,58.4-71,133.7-64.5,213.7c-0.3-3.5-0.4-7-0.5-10.4
			c0-1.6-0.1-3.3-0.1-4.9v-0.6c0-1.8,0-3.5,0-5.3c1.4-78.8,32.7-150.3,82.9-203.7c55.7-59.3,134.9-96.3,222.7-96.3
			c24,0,47.4,2.8,69.9,8c112.6,26.3,201.3,115,227.7,227.5C804.8,326.7,802.3,315.1,799.3,303.8z"/>
		
			<linearGradient id="_x3C_Effect_x3E__29_" gradientUnits="userSpaceOnUse" x1="267.4432" y1="516.471" x2="670.1026" y2="516.471">
			<stop  offset="0" style="stop-color:#FFFFFF"/>
			<stop  offset="7.380247e-03" style="stop-color:#F6F6F6"/>
			<stop  offset="4.767627e-02" style="stop-color:#C8C8C8"/>
			<stop  offset="9.308982e-02" style="stop-color:#9D9D9D"/>
			<stop  offset="0.1419" style="stop-color:#777777"/>
			<stop  offset="0.195" style="stop-color:#575757"/>
			<stop  offset="0.2537" style="stop-color:#3B3B3B"/>
			<stop  offset="0.32" style="stop-color:#252525"/>
			<stop  offset="0.3974" style="stop-color:#141414"/>
			<stop  offset="0.4931" style="stop-color:#090909"/>
			<stop  offset="0.6274" style="stop-color:#020202"/>
			<stop  offset="1" style="stop-color:#000000"/>
		</linearGradient>
		<path id="_x3C_Effect_x3E__5_" class="st17" d="M499.1,226.5c1.8,0.9,3.7,1.9,5.5,2.9c1.6,0.9,3.3,1.8,4.8,2.7
			c1.3,0.8,2.6,1.5,3.9,2.4c0.8,0.4,1.6,0.9,2.4,1.4c66.7,40.6,112.5,102.9,133.4,172.6c23.5,78,16,165-27.9,241
			c-12,20.9-26.2,39.7-42,56.6c-79.3,84.6-200.9,117-311.8,83c8.4,3.1,17,5.9,25.6,8.5c2.9,0.9,5.8,1.7,8.7,2.4
			c135.9,28.6,278.4-38.8,339.6-170C711.9,478.8,648.1,299.5,499.1,226.5z"/>
	</g>
</g>
<g id="type">
</g>
</svg>
