<?xml version="1.0" encoding="utf-8"?>
<!-- Generator: Adobe Illustrator 25.2.2, SVG Export Plug-In . SVG Version: 6.00 Build 0)  -->
<svg version="1.1" id="Layer_1" xmlns="http://www.w3.org/2000/svg" xmlns:xlink="http://www.w3.org/1999/xlink" x="0px" y="0px"
	 viewBox="0 0 32 32" style="enable-background:new 0 0 32 32;" xml:space="preserve">
<style type="text/css">
	.st0{fill:#ECFDF5;}
	.st1{fill:#34D399;}
</style>
<g>
	<g>
		<circle class="st0" cx="16" cy="16" r="16"/>
	</g>
	<g>
		<path class="st1" d="M9.6,21.2H9.2c-0.5,0-0.9-0.4-0.9-0.9v-4.9c0-0.2,0.2-0.3,0.3-0.3c0.2,0,0.3,0.2,0.3,0.3v4.9
			c0,0.1,0.1,0.2,0.2,0.2h0.4c0.1,0,0.2-0.1,0.2-0.2v-3.6c0-0.2,0.2-0.3,0.3-0.3c0.2,0,0.3,0.2,0.3,0.3v3.6
			C10.5,20.8,10.1,21.2,9.6,21.2z"/>
		<path class="st1" d="M11.2,21.2h-0.4c-0.5,0-0.9-0.4-0.9-0.9c0-0.2,0.2-0.3,0.3-0.3c0.2,0,0.3,0.2,0.3,0.3c0,0.1,0.1,0.2,0.2,0.2
			h0.4c0.1,0,0.2-0.1,0.2-0.2v-4.5c0-0.2,0.2-0.3,0.3-0.3c0.2,0,0.3,0.2,0.3,0.3v4.5C12.1,20.8,11.7,21.2,11.2,21.2z"/>
		<path class="st1" d="M12.4,16.9c-0.6,0-1-0.5-1-1v-2.8c0-0.2,0.2-0.3,0.3-0.3c0.2,0,0.3,0.2,0.3,0.3v2.8c0,0.2,0.2,0.3,0.3,0.3
			c0.2,0,0.3-0.2,0.3-0.3V13c0-0.2,0.2-0.3,0.3-0.3c0.2,0,0.3,0.2,0.3,0.3v2.8C13.4,16.4,13,16.9,12.4,16.9z"/>
		<path class="st1" d="M13.1,13.4c-0.2,0-0.3-0.2-0.3-0.3c0-0.8-0.6-1.5-1.5-1.5H9.1c-0.2,0-0.3-0.2-0.3-0.3s0.2-0.3,0.3-0.3h2.2
			c1.2,0,2.2,1,2.2,2.2C13.4,13.2,13.3,13.4,13.1,13.4z"/>
		<path class="st1" d="M10.2,10.5c-0.9,0-1.6-1.1-1.6-2c0-0.9,0.7-1.6,1.6-1.6s1.6,0.7,1.6,1.6C11.8,9.4,11.1,10.5,10.2,10.5z
			 M10.2,7.6C9.7,7.6,9.3,8,9.3,8.5c0,0.5,0.4,1.3,0.9,1.3s0.9-0.7,0.9-1.3C11.1,8,10.7,7.6,10.2,7.6z"/>
		<path class="st1" d="M8,16.9c-0.6,0-1-0.5-1-1V13c0-0.2,0.2-0.3,0.3-0.3c0.2,0,0.3,0.2,0.3,0.3v2.8c0,0.2,0.2,0.3,0.3,0.3
			c0.2,0,0.3-0.2,0.3-0.3v-2.8c0-0.2,0.2-0.3,0.3-0.3c0.2,0,0.3,0.2,0.3,0.3v2.8C9,16.4,8.5,16.9,8,16.9z"/>
		<path class="st1" d="M7.3,13.4c-0.2,0-0.3-0.2-0.3-0.3c0-1.2,1-2.2,2.2-2.2c0.2,0,0.3,0.2,0.3,0.3s-0.2,0.3-0.3,0.3
			c-0.8,0-1.5,0.7-1.5,1.5C7.6,13.2,7.5,13.4,7.3,13.4z"/>
		<path class="st1" d="M21.2,25.1h-0.4c-0.5,0-0.9-0.4-0.9-0.9v-4.9c0-0.2,0.2-0.3,0.3-0.3c0.2,0,0.3,0.2,0.3,0.3v4.9
			c0,0.1,0.1,0.2,0.2,0.2h0.4c0.1,0,0.2-0.1,0.2-0.2v-3.6c0-0.2,0.2-0.3,0.3-0.3c0.2,0,0.3,0.2,0.3,0.3v3.6
			C22.2,24.6,21.7,25.1,21.2,25.1z"/>
		<path class="st1" d="M22.8,25.1h-0.4c-0.5,0-0.9-0.4-0.9-0.9c0-0.2,0.2-0.3,0.3-0.3c0.2,0,0.3,0.2,0.3,0.3c0,0.1,0.1,0.2,0.2,0.2
			h0.4c0.1,0,0.2-0.1,0.2-0.2v-4.5c0-0.2,0.2-0.3,0.3-0.3c0.2,0,0.3,0.2,0.3,0.3v4.5C23.7,24.6,23.3,25.1,22.8,25.1z"/>
		<path class="st1" d="M24,20.7c-0.6,0-1-0.5-1-1v-2.7c0-0.2,0.2-0.3,0.3-0.3c0.2,0,0.3,0.2,0.3,0.3v2.7c0,0.2,0.1,0.3,0.3,0.3
			s0.3-0.1,0.3-0.3v-2.8c0-0.2,0.2-0.3,0.3-0.3c0.2,0,0.3,0.2,0.3,0.3v2.8C25.1,20.2,24.6,20.7,24,20.7z"/>
		<path class="st1" d="M24.7,17.2c-0.2,0-0.3-0.2-0.3-0.3c0-0.8-0.7-1.5-1.5-1.5h-2.2c-0.2,0-0.3-0.2-0.3-0.3s0.2-0.3,0.3-0.3h2.2
			c1.2,0,2.2,1,2.2,2.2C25.1,17,24.9,17.2,24.7,17.2z"/>
		<path class="st1" d="M21.8,14.3c-0.9,0-1.6-1.1-1.6-1.9c0-0.9,0.7-1.6,1.6-1.6c0.9,0,1.6,0.7,1.6,1.6
			C23.4,13.2,22.7,14.3,21.8,14.3z M21.8,11.4c-0.5,0-0.9,0.4-0.9,0.9c0,0.5,0.4,1.2,0.9,1.2c0.4,0,0.9-0.7,0.9-1.2
			C22.7,11.8,22.3,11.4,21.8,11.4z"/>
		<path class="st1" d="M19.6,20.7c-0.6,0-1-0.4-1-1v-2.8c0-0.2,0.2-0.3,0.3-0.3c0.2,0,0.3,0.2,0.3,0.3v2.8c0,0.2,0.1,0.3,0.3,0.3
			c0.2,0,0.3-0.1,0.3-0.3v-2.7c0-0.2,0.2-0.3,0.3-0.3c0.2,0,0.3,0.2,0.3,0.3v2.7C20.6,20.2,20.2,20.7,19.6,20.7z"/>
		<path class="st1" d="M18.9,17.2c-0.2,0-0.3-0.2-0.3-0.3c0-1.2,1-2.2,2.2-2.2c0.2,0,0.3,0.2,0.3,0.3s-0.2,0.3-0.3,0.3
			c-0.8,0-1.5,0.7-1.5,1.5C19.3,17,19.1,17.2,18.9,17.2z"/>
		<path class="st1" d="M17.4,15.1c-0.1,0-0.1,0-0.2,0l-2.5-1.5c-0.2-0.1-0.2-0.3-0.1-0.5c0.1-0.2,0.3-0.2,0.5-0.1l2.5,1.5
			c0.2,0.1,0.2,0.3,0.1,0.5C17.7,15,17.6,15.1,17.4,15.1z"/>
		<path class="st1" d="M16.5,15.4c-0.2,0-0.3-0.1-0.3-0.3c0-0.2,0.1-0.4,0.3-0.4l1-0.2c0.2,0,0.4,0.1,0.4,0.3c0,0.2-0.1,0.4-0.3,0.4
			L16.5,15.4C16.5,15.3,16.5,15.4,16.5,15.4z"/>
		<path class="st1" d="M17.4,15.1c-0.2,0-0.3-0.1-0.3-0.3l-0.2-1c0-0.2,0.1-0.4,0.3-0.4c0.2,0,0.4,0.1,0.4,0.3l0.2,1
			C17.8,14.9,17.7,15,17.4,15.1C17.5,15.1,17.5,15.1,17.4,15.1z"/>
		<path class="st1" d="M17.4,19.1c-0.1,0-0.1,0-0.2,0l-2.5-1.5c-0.2-0.1-0.2-0.3-0.1-0.5c0.1-0.2,0.3-0.2,0.5-0.1l2.5,1.5
			c0.2,0.1,0.2,0.3,0.1,0.5C17.7,19,17.6,19.1,17.4,19.1z"/>
		<path class="st1" d="M14.9,17.6c-0.2,0-0.3-0.1-0.3-0.3c-0.1-0.2,0.1-0.4,0.2-0.4l1-0.3c0.2-0.1,0.4,0.1,0.4,0.2
			c0.1,0.2-0.1,0.4-0.2,0.4L14.9,17.6C15,17.6,14.9,17.6,14.9,17.6z"/>
		<path class="st1" d="M15.1,18.6c-0.2,0-0.3-0.1-0.3-0.3l-0.2-1c0-0.2,0.1-0.4,0.3-0.4c0.2,0,0.4,0.1,0.4,0.3l0.2,1
			C15.5,18.3,15.4,18.5,15.1,18.6C15.2,18.6,15.2,18.6,15.1,18.6z"/>
	</g>
</g>
</svg>
